[gd_scene load_steps=2 format=3 uid="uid://djiojae0rpsb4"]

[ext_resource type="Material" uid="uid://bk1jki3qc31vu" path="res://textures/resources/CSG.tres" id="1_gi2x0"]

[node name="minitile_1x4_0" type="Node3D"]

[node name="CSGBox3D" type="CSGBox3D" parent="."]
transform = Transform3D(1, 0, 0, 0, 1, 0, 0, 0, 1, 0, -25, 0)
material_override = ExtResource("1_gi2x0")
size = Vector3(8, 50, 32)
