[gd_scene load_steps=2 format=3 uid="uid://c6umb2ds01w78"]

[ext_resource type="Material" uid="uid://bk1jki3qc31vu" path="res://textures/resources/CSG.tres" id="1_mjwqh"]

[node name="minitile_2x4_1" type="Node3D"]

[node name="CSGBox3D" type="CSGBox3D" parent="."]
transform = Transform3D(1, 0, 0, 0, 1, 0, 0, 0, 1, 0, -25, 0)
material_override = ExtResource("1_mjwqh")
size = Vector3(16, 50, 32)

[node name="CSGBox3D13" type="CSGBox3D" parent="."]
transform = Transform3D(1, 0, 0, 0, 1, 0, 0, 0, 1, -3, 5.5, -8)
material_override = ExtResource("1_mjwqh")
size = Vector3(2, 3, 8)

[node name="CSGBox3D14" type="CSGBox3D" parent="."]
transform = Transform3D(1, 0, 0, 0, 1, 0, 0, 0, 1, -2.5, 5.5, 15.5)
material_override = ExtResource("1_mjwqh")
size = Vector3(9, 3, 1)

[node name="CSGBox3D15" type="CSGBox3D" parent="."]
transform = Transform3D(1, 0, 0, 0, 1, 0, 0, 0, 1, 2.5, 3.5, -11)
material_override = ExtResource("1_mjwqh")
size = Vector3(5, 7, 2)

[node name="CSGBox3D16" type="CSGBox3D" parent="."]
transform = Transform3D(1, 0, 0, 0, 1, 0, 0, 0, 1, 5, 5.5, 10)
material_override = ExtResource("1_mjwqh")
size = Vector3(6, 3, 12)

[node name="CSGBox3D20" type="CSGBox3D" parent="."]
transform = Transform3D(1, 0, 0, 0, 1, 0, 0, 0, 1, -6, 2, 15.5)
material_override = ExtResource("1_mjwqh")
size = Vector3(4, 4, 1)

[node name="CSGBox3D22" type="CSGBox3D" parent="."]
transform = Transform3D(1, 0, 0, 0, 1, 0, 0, 0, 1, 3, 2, 15.5)
material_override = ExtResource("1_mjwqh")
size = Vector3(10, 4, 1)

[node name="CSGBox3D23" type="CSGBox3D" parent="."]
transform = Transform3D(1, 0, 0, 0, 1, 0, 0, 0, 1, -7.5, 5.5, 6)
material_override = ExtResource("1_mjwqh")
size = Vector3(1, 3, 20)

[node name="CSGBox3D24" type="CSGBox3D" parent="."]
transform = Transform3D(1, 0, 0, 0, 1, 0, 0, 0, 1, -4.5, 5.5, -0.5)
material_override = ExtResource("1_mjwqh")
size = Vector3(5, 3, 1)

[node name="CSGBox3D26" type="CSGBox3D" parent="."]
transform = Transform3D(1, 0, 0, 0, 1, 0, 0, 0, 1, 7.5, 2, 7.5)
material_override = ExtResource("1_mjwqh")
size = Vector3(1, 4, 7)

[node name="CSGBox3D27" type="CSGBox3D" parent="."]
transform = Transform3D(1, 0, 0, 0, 1, 0, 0, 0, 1, -1, 5.5, -7)
material_override = ExtResource("1_mjwqh")
size = Vector3(2, 3, 2)

[node name="CSGBox3D28" type="CSGBox3D" parent="."]
transform = Transform3D(1, 0, 0, 0, 1, 0, 0, 0, 1, 5, 3.5, -6)
material_override = ExtResource("1_mjwqh")
size = Vector3(2, 7, 4)

[node name="CSGBox3D31" type="CSGBox3D" parent="."]
transform = Transform3D(1, 0, 0, 0, 1, 0, 0, 0, 1, 4, 8.5, -5)
material_override = ExtResource("1_mjwqh")
size = Vector3(4, 1, 16)

[node name="CSGBox3D19" type="CSGBox3D" parent="."]
transform = Transform3D(1, 0, 0, 0, 1, 0, 0, 0, 1, 0, 7.5, 0)
material_override = ExtResource("1_mjwqh")
size = Vector3(16, 1, 32)

[node name="CSGBox3D17" type="CSGBox3D" parent="."]
transform = Transform3D(1, 0, 0, 0, 1, 0, 0, 0, 1, -6, 1.5, -7.5)
material_override = ExtResource("1_mjwqh")
size = Vector3(2, 3, 1)

[node name="CSGBox3D21" type="CSGBox3D" parent="."]
transform = Transform3D(1, 0, 0, 0, 1, 0, 0, 0, 1, -7.5, 1.5, -4)
material_override = ExtResource("1_mjwqh")
size = Vector3(1, 3, 8)

[node name="CSGBox3D25" type="CSGBox3D" parent="."]
transform = Transform3D(1, 0, 0, 0, 1, 0, 0, 0, 1, -1.5, 1.5, -6)
material_override = ExtResource("1_mjwqh")
size = Vector3(3, 3, 4)

[node name="CSGBox3D29" type="CSGBox3D" parent="."]
transform = Transform3D(1, 0, 0, 0, 1, 0, 0, 0, 1, -1.5, 1.5, -0.5)
material_override = ExtResource("1_mjwqh")
size = Vector3(3, 3, 1)

[node name="CSGBox3D18" type="CSGBox3D" parent="."]
transform = Transform3D(1, 0, 0, 0, 1, 0, 0, 0, 1, -4, 3.5, -4)
material_override = ExtResource("1_mjwqh")
size = Vector3(8, 1, 8)

[node name="CSGBox3D30" type="CSGBox3D" parent="."]
transform = Transform3D(1, 0, 0, 0, 1, 0, 0, 0, 1, -7.5, 13.5, 12)
material_override = ExtResource("1_mjwqh")
size = Vector3(1, 3, 8)

[node name="CSGBox3D32" type="CSGBox3D" parent="."]
transform = Transform3D(1, 0, 0, 0, 1, 0, 0, 0, 1, -5.5, 13.5, 15.5)
material_override = ExtResource("1_mjwqh")
size = Vector3(3, 3, 1)

[node name="CSGBox3D33" type="CSGBox3D" parent="."]
transform = Transform3D(1, 0, 0, 0, 1, 0, 0, 0, 1, -0.5, 13.5, 8.5)
material_override = ExtResource("1_mjwqh")
size = Vector3(1, 3, 1)

[node name="CSGBox3D34" type="CSGBox3D" parent="."]
transform = Transform3D(1, 0, 0, 0, 1, 0, 0, 0, 1, -1, 13.5, 15.5)
material_override = ExtResource("1_mjwqh")
size = Vector3(2, 3, 1)

[node name="CSGBox3D35" type="CSGBox3D" parent="."]
transform = Transform3D(1, 0, 0, 0, 1, 0, 0, 0, 1, -6, 9.5, 8.5)
material_override = ExtResource("1_mjwqh")
size = Vector3(2, 3, 1)

[node name="CSGBox3D36" type="CSGBox3D" parent="."]
transform = Transform3D(1, 0, 0, 0, 1, 0, 0, 0, 1, -7.5, 9.5, 12)
material_override = ExtResource("1_mjwqh")
size = Vector3(1, 3, 8)

[node name="CSGBox3D37" type="CSGBox3D" parent="."]
transform = Transform3D(1, 0, 0, 0, 1, 0, 0, 0, 1, -1.5, 9.5, 10)
material_override = ExtResource("1_mjwqh")
size = Vector3(3, 3, 4)

[node name="CSGBox3D38" type="CSGBox3D" parent="."]
transform = Transform3D(1, 0, 0, 0, 1, 0, 0, 0, 1, -1.5, 9.5, 15.5)
material_override = ExtResource("1_mjwqh")
size = Vector3(3, 3, 1)

[node name="CSGBox3D39" type="CSGBox3D" parent="."]
transform = Transform3D(1, 0, 0, 0, 1, 0, 0, 0, 1, -3, 11.5, 12)
material_override = ExtResource("1_mjwqh")
size = Vector3(10, 1, 8)

[node name="CSGBox3D40" type="CSGBox3D" parent="."]
transform = Transform3D(1, 0, 0, 0, 1, 0, 0, 0, 1, -4, 15.5, 12)
material_override = ExtResource("1_mjwqh")
size = Vector3(8, 1, 8)

[node name="CSGBox3D41" type="CSGBox3D" parent="."]
transform = Transform3D(1, 0, 0, 0, 1, 0, 0, 0, 1, -2, 16.5, 13)
material_override = ExtResource("1_mjwqh")
size = Vector3(2, 1, 4)
