[gd_scene load_steps=2 format=3 uid="uid://dhdvoifa2pov2"]

[ext_resource type="Material" uid="uid://bk1jki3qc31vu" path="res://textures/resources/CSG.tres" id="1_jn6gf"]

[node name="minitile_1x4_1" type="Node3D"]

[node name="CSGBox3D" type="CSGBox3D" parent="."]
transform = Transform3D(1, 0, 0, 0, 1, 0, 0, 0, 1, 0, -25, 0)
size = Vector3(8, 50, 32)
material = ExtResource("1_jn6gf")

[node name="CSGBox3D3" type="CSGBox3D" parent="."]
transform = Transform3D(1, 0, 0, 0, 1, 0, 0, 0, 1, -1.5, 2, 0.5)
size = Vector3(1, 4, 5)
material = ExtResource("1_jn6gf")

[node name="CSGBox3D4" type="CSGBox3D" parent="."]
transform = Transform3D(1, 0, 0, 0, 1, 0, 0, 0, 1, -1.5, 1, 5.5)
size = Vector3(1, 2, 5)
material = ExtResource("1_jn6gf")

[node name="CSGBox3D9" type="CSGBox3D" parent="."]
transform = Transform3D(1, 0, 0, 0, 1, 0, 0, 0, 1, 0.5, 1, 7.5)
size = Vector3(3, 2, 1)
material = ExtResource("1_jn6gf")

[node name="CSGBox3D11" type="CSGBox3D" parent="."]
transform = Transform3D(1, 0, 0, 0, 1, 0, 0, 0, 1, 2.5, 1, 15)
size = Vector3(3, 2, 2)
material = ExtResource("1_jn6gf")

[node name="CSGBox3D10" type="CSGBox3D" parent="."]
transform = Transform3D(1, 0, 0, 0, 1, 0, 0, 0, 1, 0.5, 3.5, -2)
size = Vector3(3, 1, 2)
material = ExtResource("1_jn6gf")

[node name="CSGBox3D7" type="CSGBox3D" parent="."]
transform = Transform3D(1, 0, 0, 0, 1, 0, 0, 0, 1, 2.5, 2.5, -2)
size = Vector3(1, 5, 4)
material = ExtResource("1_jn6gf")

[node name="CSGBox3D6" type="CSGBox3D" parent="."]
transform = Transform3D(1, 0, 0, 0, 1, 0, 0, 0, 1, 0, 4.5, -0.5)
size = Vector3(4, 1, 7)
material = ExtResource("1_jn6gf")

[node name="CSGBox3D5" type="CSGBox3D" parent="."]
transform = Transform3D(1, 0, 0, 0, 1, 0, 0, 0, 1, 1.5, 8.5, -6.5)
size = Vector3(1, 17, 1)
material = ExtResource("1_jn6gf")
