[gd_scene load_steps=2 format=3 uid="uid://b0wojy5hmqquk"]

[ext_resource type="Material" uid="uid://bk1jki3qc31vu" path="res://textures/resources/CSG.tres" id="1_ayrcc"]

[node name="minitile_2x5_1" type="Node3D"]

[node name="CSGBox3D" type="CSGBox3D" parent="."]
transform = Transform3D(1, 0, 0, 0, 1, 0, 0, 0, 1, 0, -25, 0)
material_override = ExtResource("1_ayrcc")
size = Vector3(16, 50, 40)

[node name="CSGBox3D5" type="CSGBox3D" parent="."]
transform = Transform3D(1, 0, 0, 0, 1, 0, 0, 0, 1, 4.5, 0.5, -14)
material_override = ExtResource("1_ayrcc")
size = Vector3(7, 1, 12)

[node name="CSGBox3D6" type="CSGBox3D" parent="."]
transform = Transform3D(1, 0, 0, 0, 1, 0, 0, 0, 1, 6.5, 1.5, -15.5)
material_override = ExtResource("1_ayrcc")
size = Vector3(3, 1, 9)

[node name="CSGBox3D7" type="CSGBox3D" parent="."]
transform = Transform3D(1, 0, 0, 0, 1, 0, 0, 0, 1, 7, 2.5, -18)
material_override = ExtResource("1_ayrcc")
size = Vector3(2, 1, 4)

[node name="CSGBox3D8" type="CSGBox3D" parent="."]
transform = Transform3D(1, 0, 0, 0, 1, 0, 0, 0, 1, -3.5, 6.5, 3)
material_override = ExtResource("1_ayrcc")
size = Vector3(1, 7, 4)

[node name="CSGBox3D9" type="CSGBox3D" parent="."]
transform = Transform3D(1, 0, 0, 0, 1, 0, 0, 0, 1, -3.5, 3.5, 0)
material_override = ExtResource("1_ayrcc")
size = Vector3(1, 7, 2)

[node name="CSGBox3D11" type="CSGBox3D" parent="."]
transform = Transform3D(1, 0, 0, 0, 1, 0, 0, 0, 1, -3.5, 2, -3.5)
material_override = ExtResource("1_ayrcc")
size = Vector3(1, 4, 5)

[node name="CSGBox3D12" type="CSGBox3D" parent="."]
transform = Transform3D(1, 0, 0, 0, 1, 0, 0, 0, 1, -3.5, 2, 8.5)
material_override = ExtResource("1_ayrcc")
size = Vector3(1, 4, 1)

[node name="CSGBox3D10" type="CSGBox3D" parent="."]
transform = Transform3D(1, 0, 0, 0, 1, 0, 0, 0, 1, -3.5, 3.5, 6.5)
material_override = ExtResource("1_ayrcc")
size = Vector3(1, 7, 3)
