[gd_scene load_steps=2 format=3 uid="uid://bcwnew2v45wd1"]

[ext_resource type="Material" uid="uid://bk1jki3qc31vu" path="res://textures/resources/CSG.tres" id="1_v4mnu"]

[node name="minitile_1x5_1" type="Node3D"]

[node name="CSGBox3D" type="CSGBox3D" parent="."]
transform = Transform3D(1, 0, 0, 0, 1, 0, 0, 0, 1, 0, -25, 0)
material_override = ExtResource("1_v4mnu")
size = Vector3(8, 50, 40)

[node name="CSGBox3D5" type="CSGBox3D" parent="."]
transform = Transform3D(1, 0, 0, 0, 1, 0, 0, 0, 1, 1, 0.5, 12.5)
material_override = ExtResource("1_v4mnu")
size = Vector3(6, 1, 15)

[node name="CSGBox3D6" type="CSGBox3D" parent="."]
transform = Transform3D(1, 0, 0, 0, 1, 0, 0, 0, 1, 1.5, 1.5, 15)
material_override = ExtResource("1_v4mnu")
size = Vector3(5, 1, 10)

[node name="CSGBox3D7" type="CSGBox3D" parent="."]
transform = Transform3D(1, 0, 0, 0, 1, 0, 0, 0, 1, 2, 2.5, 18)
material_override = ExtResource("1_v4mnu")
size = Vector3(4, 1, 4)
