[gd_scene load_steps=2 format=3 uid="uid://bwejnole1x4mg"]

[ext_resource type="Material" uid="uid://bk1jki3qc31vu" path="res://textures/resources/CSG.tres" id="1_jl1dk"]

[node name="minitile_2x5_1" type="Node3D"]

[node name="CSGBox3D" type="CSGBox3D" parent="."]
transform = Transform3D(1, 0, 0, 0, 1, 0, 0, 0, 1, 0, -25, 0)
material_override = ExtResource("1_jl1dk")
size = Vector3(16, 50, 40)

[node name="CSGBox3D7" type="CSGBox3D" parent="."]
transform = Transform3D(1, 0, 0, 0, 1, 0, 0, 0, 1, 0, 1, 0)
size = Vector3(4, 2, 2)
material = ExtResource("1_jl1dk")

[node name="CSGBox3D8" type="CSGBox3D" parent="."]
transform = Transform3D(1, 0, 0, 0, 1, 0, 0, 0, 1, -2, 1, -4)
size = Vector3(4, 2, 2)
material = ExtResource("1_jl1dk")

[node name="CSGBox3D4" type="CSGBox3D" parent="."]
transform = Transform3D(1, 0, 0, 0, 1, 0, 0, 0, 1, 7.5, 0.5, 13.5)
size = Vector3(1, 1, 3)
material = ExtResource("1_jl1dk")

[node name="CSGBox3D5" type="CSGBox3D" parent="."]
transform = Transform3D(1, 0, 0, 0, 1, 0, 0, 0, 1, -7, 0.5, 19)
size = Vector3(2, 1, 2)
material = ExtResource("1_jl1dk")
