[gd_scene load_steps=2 format=3 uid="uid://ce0pepq36k70y"]

[ext_resource type="Material" uid="uid://bk1jki3qc31vu" path="res://textures/resources/CSG.tres" id="1_dk8jv"]

[node name="minitile_1x1_1" type="Node3D"]

[node name="CSGBox3D" type="CSGBox3D" parent="."]
transform = Transform3D(1, 0, 0, 0, 1, 0, 0, 0, 1, 0, -25, 0)
size = Vector3(8, 50, 8)
material = ExtResource("1_dk8jv")

[node name="CSGBox3D2" type="CSGBox3D" parent="."]
transform = Transform3D(1, 0, 0, 0, 1, 0, 0, 0, 1, -3, 9, 0)
size = Vector3(2, 18, 2)
material = ExtResource("1_dk8jv")

[node name="CSGBox3D3" type="CSGBox3D" parent="."]
transform = Transform3D(1, 0, 0, 0, 1, 0, 0, 0, 1, -3, 13, 2.5)
size = Vector3(2, 18, 3)
material = ExtResource("1_dk8jv")

[node name="CSGBox3D4" type="CSGBox3D" parent="."]
transform = Transform3D(1, 0, 0, 0, 1, 0, 0, 0, 1, -3, 15, -3)
size = Vector3(2, 14, 2)
material = ExtResource("1_dk8jv")

[node name="CSGBox3D5" type="CSGBox3D" parent="."]
transform = Transform3D(1, 0, 0, 0, 1, 0, 0, 0, 1, 3, 9, -3)
size = Vector3(2, 18, 2)
material = ExtResource("1_dk8jv")

[node name="CSGBox3D6" type="CSGBox3D" parent="."]
transform = Transform3D(1, 0, 0, 0, 1, 0, 0, 0, 1, 3, 7, 2.5)
size = Vector3(2, 14, 3)
material = ExtResource("1_dk8jv")

[node name="CSGBox3D7" type="CSGBox3D" parent="."]
transform = Transform3D(1, 0, 0, 0, 1, 0, 0, 0, 1, 3, 11, -0.5)
size = Vector3(2, 14, 3)
material = ExtResource("1_dk8jv")

[node name="CSGBox3D8" type="CSGBox3D" parent="."]
transform = Transform3D(1, 0, 0, 0, 1, 0, 0, 0, 1, 0, 13, 0)
size = Vector3(4, 10, 8)
material = ExtResource("1_dk8jv")

[node name="CSGBox3D9" type="CSGBox3D" parent="."]
transform = Transform3D(1, 0, 0, 0, 1, 0, 0, 0, 1, 0, 4.5, 0)
size = Vector3(4, 1, 8)
material = ExtResource("1_dk8jv")
