[gd_scene load_steps=2 format=3 uid="uid://c5r3o4tms7gfc"]

[ext_resource type="Material" uid="uid://bk1jki3qc31vu" path="res://textures/resources/CSG.tres" id="1_p1pkt"]

[node name="minitile_2x5_1" type="Node3D"]

[node name="CSGBox3D" type="CSGBox3D" parent="."]
transform = Transform3D(1, 0, 0, 0, 1, 0, 0, 0, 1, 0, -25, 0)
material_override = ExtResource("1_p1pkt")
size = Vector3(16, 50, 40)

[node name="CSGBox3D5" type="CSGBox3D" parent="."]
transform = Transform3D(1, 0, 0, 0, 1, 0, 0, 0, 1, -1, 1.5, 1)
size = Vector3(2, 3, 24)
material = ExtResource("1_p1pkt")

[node name="CSGBox3D6" type="CSGBox3D" parent="."]
transform = Transform3D(1, 0, 0, 0, 1, 0, 0, 0, 1, -1, 1.5, 15)
size = Vector3(4, 5, 4)
material = ExtResource("1_p1pkt")
