[gd_scene load_steps=2 format=3 uid="uid://giecicqyeapr"]

[ext_resource type="Material" uid="uid://bk1jki3qc31vu" path="res://textures/resources/CSG.tres" id="1_tp6fm"]

[node name="minitile_2x5_1" type="Node3D"]

[node name="CSGBox3D" type="CSGBox3D" parent="."]
transform = Transform3D(1, 0, 0, 0, 1, 0, 0, 0, 1, 0, -25, 0)
material_override = ExtResource("1_tp6fm")
size = Vector3(16, 50, 40)

[node name="CSGBox3D8" type="CSGBox3D" parent="."]
transform = Transform3D(1, 0, 0, 0, 1, 0, 0, 0, 1, -2, 0.5, 9.5)
size = Vector3(12, 1, 1)
material = ExtResource("1_tp6fm")

[node name="CSGBox3D4" type="CSGBox3D" parent="."]
transform = Transform3D(1, 0, 0, 0, 1, 0, 0, 0, 1, 2, 0.5, -2.5)
size = Vector3(12, 1, 1)
material = ExtResource("1_tp6fm")

[node name="CSGBox3D5" type="CSGBox3D" parent="."]
transform = Transform3D(1, 0, 0, 0, 1, 0, 0, 0, 1, 2, 0.5, -11.5)
size = Vector3(12, 1, 1)
material = ExtResource("1_tp6fm")

[node name="CSGBox3D6" type="CSGBox3D" parent="."]
transform = Transform3D(1, 0, 0, 0, 1, 0, 0, 0, 1, 2, 0.5, -19.5)
size = Vector3(12, 1, 1)
material = ExtResource("1_tp6fm")

[node name="CSGBox3D13" type="CSGBox3D" parent="."]
transform = Transform3D(1, 0, 0, 0, 1, 0, 0, 0, 1, 2, 0.5, 13.5)
size = Vector3(12, 1, 1)
material = ExtResource("1_tp6fm")
