[gd_scene load_steps=2 format=3 uid="uid://c6tf21edt5vys"]

[ext_resource type="Material" uid="uid://bk1jki3qc31vu" path="res://textures/resources/CSG.tres" id="1_gckpb"]

[node name="minitile_2x4_1" type="Node3D"]

[node name="CSGBox3D" type="CSGBox3D" parent="."]
transform = Transform3D(1, 0, 0, 0, 1, 0, 0, 0, 1, 0, -25, 0)
material_override = ExtResource("1_gckpb")
size = Vector3(16, 50, 32)

[node name="CSGBox3D6" type="CSGBox3D" parent="."]
transform = Transform3D(1, 0, 0, 0, 1, 0, 0, 0, 1, 2, 1.5, -11)
material_override = ExtResource("1_gckpb")
size = Vector3(2, 3, 2)

[node name="CSGBox3D8" type="CSGBox3D" parent="."]
transform = Transform3D(1, 0, 0, 0, 1, 0, 0, 0, 1, 0.5, 1, -6.5)
material_override = ExtResource("1_gckpb")
size = Vector3(1, 2, 1)

[node name="CSGBox3D7" type="CSGBox3D" parent="."]
transform = Transform3D(1, 0, 0, 0, 1, 0, 0, 0, 1, -5, 2, 12)
material_override = ExtResource("1_gckpb")
size = Vector3(2, 4, 2)
