[gd_scene load_steps=2 format=3 uid="uid://c2qrcg3k32r70"]

[ext_resource type="Material" uid="uid://bk1jki3qc31vu" path="res://textures/resources/CSG.tres" id="1_ka4wn"]

[node name="minitile_3x3_1" type="Node3D"]

[node name="CSGBox3D" type="CSGBox3D" parent="."]
transform = Transform3D(1, 0, 0, 0, 1, 0, 0, 0, 1, 0, -25, 0)
material_override = ExtResource("1_ka4wn")
size = Vector3(24, 50, 24)

[node name="CSGBox3D2" type="CSGBox3D" parent="."]
transform = Transform3D(1, 0, 0, 0, 1, 0, 0, 0, 1, 3, 0.5, -3.5)
size = Vector3(2, 1, 1)
material = ExtResource("1_ka4wn")

[node name="CSGBox3D15" type="CSGBox3D" parent="."]
transform = Transform3D(1, 0, 0, 0, 1, 0, 0, 0, 1, 2.5, 1.5, -1.5)
size = Vector3(3, 1, 3)
material = ExtResource("1_ka4wn")

[node name="CSGBox3D17" type="CSGBox3D" parent="."]
transform = Transform3D(1, 0, 0, 0, 1, 0, 0, 0, 1, -1.5, 3.5, -1.5)
size = Vector3(3, 1, 3)
material = ExtResource("1_ka4wn")

[node name="CSGBox3D19" type="CSGBox3D" parent="."]
transform = Transform3D(0.999967, 0, 0.00811569, 0, 1, 0, -0.00811569, 0, 0.999967, -1.5, 4.5, -3.5)
size = Vector3(3, 1, 1)
material = ExtResource("1_ka4wn")

[node name="CSGBox3D16" type="CSGBox3D" parent="."]
transform = Transform3D(1, 0, 0, 0, 1, 0, 0, 0, 1, 0.5, 2.5, -1)
size = Vector3(1, 1, 2)
material = ExtResource("1_ka4wn")

[node name="CSGBox3D40" type="CSGBox3D" parent="."]
transform = Transform3D(1, 0, 0, 0, 1, 0, 0, 0, 1, 0.5, -0.5, -3.5)
size = Vector3(3, 13, 3)
material = ExtResource("1_ka4wn")
