[gd_scene load_steps=2 format=3 uid="uid://btswllveil3an"]

[ext_resource type="Material" uid="uid://bk1jki3qc31vu" path="res://textures/resources/CSG.tres" id="1_klpen"]

[node name="minitile_1x1_1" type="Node3D"]

[node name="CSGBox3D" type="CSGBox3D" parent="."]
transform = Transform3D(1, 0, 0, 0, 1, 0, 0, 0, 1, 0, -25, 0)
size = Vector3(8, 50, 8)
material = ExtResource("1_klpen")

[node name="CSGBox3D5" type="CSGBox3D" parent="."]
transform = Transform3D(1, 0, 0, 0, 1, 0, 0, 0, 1, -2, 1.5, -0.5)
size = Vector3(2, 1, 1)
material = ExtResource("1_klpen")

[node name="CSGBox3D6" type="CSGBox3D" parent="."]
transform = Transform3D(1, 0, 0, 0, 1, 0, 0, 0, 1, -0.5, 3.5, -2)
size = Vector3(1, 1, 2)
material = ExtResource("1_klpen")

[node name="CSGBox3D8" type="CSGBox3D" parent="."]
transform = Transform3D(1, 0, 0, 0, 1, 0, 0, 0, 1, -0.5, 7.5, 1)
size = Vector3(1, 1, 2)
material = ExtResource("1_klpen")

[node name="CSGBox3D7" type="CSGBox3D" parent="."]
transform = Transform3D(1, 0, 0, 0, 1, 0, 0, 0, 1, 1, 5.5, -0.5)
size = Vector3(2, 1, 1)
material = ExtResource("1_klpen")

[node name="CSGBox3D3" type="CSGBox3D" parent="."]
transform = Transform3D(1, 0, 0, 0, 1, 0, 0, 0, 1, -0.5, 2, -0.5)
size = Vector3(1, 12, 1)
material = ExtResource("1_klpen")
