[gd_resource type="StandardMaterial3D" load_steps=8 format=3 uid="uid://cqkh78nf65u72"]

[ext_resource type="Material" uid="uid://by70qtppu7o84" path="res://textures/resources/grid.tres" id="1_08e04"]

[sub_resource type="Gradient" id="Gradient_ayfjn"]
colors = PackedColorArray(0.521141, 0.521141, 0.521141, 1, 1, 1, 1, 1)

[sub_resource type="FastNoiseLite" id="FastNoiseLite_84n6k"]
noise_type = 0
frequency = 0.008

[sub_resource type="NoiseTexture2D" id="NoiseTexture2D_1mtml"]
color_ramp = SubResource("Gradient_ayfjn")
noise = SubResource("FastNoiseLite_84n6k")

[sub_resource type="Gradient" id="Gradient_i2oh4"]

[sub_resource type="FastNoiseLite" id="FastNoiseLite_0ycc5"]
noise_type = 5
seed = -29
frequency = 0.079

[sub_resource type="NoiseTexture2D" id="NoiseTexture2D_fv6vw"]
in_3d_space = true
seamless = true
seamless_blend_skirt = 0.05
color_ramp = SubResource("Gradient_i2oh4")
noise = SubResource("FastNoiseLite_0ycc5")

[resource]
next_pass = ExtResource("1_08e04")
blend_mode = 1
albedo_color = Color(0.501961, 0.501961, 0.501961, 1)
albedo_texture = SubResource("NoiseTexture2D_1mtml")
metallic = 0.01
metallic_specular = 0.01
roughness = 0.5
roughness_texture = SubResource("NoiseTexture2D_fv6vw")
uv1_scale = Vector3(-0.086, -0.086, -0.086)
uv1_world_triplanar = true
proximity_fade_distance = 21.6
distance_fade_mode = 1
distance_fade_min_distance = 1700.0
distance_fade_max_distance = 0.0
