[gd_scene load_steps=2 format=3 uid="uid://cfm52ji4brksg"]

[ext_resource type="Material" uid="uid://bk1jki3qc31vu" path="res://textures/resources/CSG.tres" id="1_2lrp1"]

[node name="minitile_1x1_1" type="Node3D"]

[node name="CSGBox3D" type="CSGBox3D" parent="."]
transform = Transform3D(1, 0, 0, 0, 1, 0, 0, 0, 1, 0, -25, 0)
size = Vector3(8, 50, 8)
material = ExtResource("1_2lrp1")

[node name="CSGBox3D7" type="CSGBox3D" parent="."]
transform = Transform3D(1, 0, 0, 0, 1, 0, 0, 0, 1, -1, 0.5, 0)
material_override = ExtResource("1_2lrp1")
size = Vector3(4, 1, 4)

[node name="CSGBox3D8" type="CSGBox3D" parent="."]
transform = Transform3D(1, 0, 0, 0, 1, 0, 0, 0, 1, -1, 3.5, 0)
material_override = ExtResource("1_2lrp1")
size = Vector3(4, 1, 4)

[node name="CSGBox3D9" type="CSGBox3D" parent="."]
transform = Transform3D(1, 0, 0, 0, 1, 0, 0, 0, 1, -1, 6.5, 0)
material_override = ExtResource("1_2lrp1")
size = Vector3(4, 1, 4)

[node name="CSGBox3D10" type="CSGBox3D" parent="."]
transform = Transform3D(1, 0, 0, 0, 1, 0, 0, 0, 1, -1, 9.5, 0)
material_override = ExtResource("1_2lrp1")
size = Vector3(4, 1, 4)

[node name="CSGBox3D11" type="CSGBox3D" parent="."]
transform = Transform3D(1, 0, 0, 0, 1, 0, 0, 0, 1, -1, 12.5, 0)
material_override = ExtResource("1_2lrp1")
size = Vector3(4, 1, 4)

[node name="CSGBox3D12" type="CSGBox3D" parent="."]
transform = Transform3D(1, 0, 0, 0, 1, 0, 0, 0, 1, 2.5, 6.5, -0.5)
material_override = ExtResource("1_2lrp1")
size = Vector3(1, 13, 1)

[node name="CSGBox3D13" type="CSGBox3D" parent="."]
transform = Transform3D(1, 0, 0, 0, 1, 0, 0, 0, 1, 3.5, 2, -0.5)
material_override = ExtResource("1_2lrp1")
size = Vector3(1, 4, 1)

[node name="CSGBox3D14" type="CSGBox3D" parent="."]
transform = Transform3D(1, 0, 0, 0, 1, 0, 0, 0, 1, 3, 1, 1)
material_override = ExtResource("1_2lrp1")
size = Vector3(2, 2, 2)
