[gd_scene load_steps=2 format=3 uid="uid://bpcomcgh0swm1"]

[ext_resource type="Material" uid="uid://bk1jki3qc31vu" path="res://textures/resources/CSG.tres" id="1_fymm4"]

[node name="minitile_3x3_1" type="Node3D"]

[node name="CSGBox3D" type="CSGBox3D" parent="."]
transform = Transform3D(1, 0, 0, 0, 1, 0, 0, 0, 1, 0, -25, 0)
material_override = ExtResource("1_fymm4")
size = Vector3(24, 50, 24)

[node name="CSGBox3D2" type="CSGBox3D" parent="."]
transform = Transform3D(1, 0, 0, 0, 1, 0, 0, 0, 1, 0, 1.5, 0)
material_override = ExtResource("1_fymm4")
size = Vector3(24, 3, 24)

[node name="CSGBox3D10" type="CSGBox3D" parent="."]
transform = Transform3D(1, 0, 0, 0, 1, 0, 0, 0, 1, 0, 3.5, 11.5)
material_override = ExtResource("1_fymm4")
size = Vector3(22, 1, 1)

[node name="CSGBox3D12" type="CSGBox3D" parent="."]
transform = Transform3D(1, 0, 0, 0, 1, 0, 0, 0, 1, 0, 3.5, -11.5)
material_override = ExtResource("1_fymm4")
size = Vector3(22, 1, 1)

[node name="CSGBox3D6" type="CSGBox3D" parent="."]
transform = Transform3D(1, 0, 0, 0, 1, 0, 0, 0, 1, -11.5, 3.5, 4.5)
material_override = ExtResource("1_fymm4")
size = Vector3(1, 1, 15)

[node name="CSGBox3D8" type="CSGBox3D" parent="."]
transform = Transform3D(1, 0, 0, 0, 1, 0, 0, 0, 1, -11.5, 3.5, -9.5)
material_override = ExtResource("1_fymm4")
size = Vector3(1, 1, 5)

[node name="CSGBox3D7" type="CSGBox3D" parent="."]
transform = Transform3D(1, 0, 0, 0, 1, 0, 0, 0, 1, 11.5, 3.5, 7.5)
material_override = ExtResource("1_fymm4")
size = Vector3(1, 1, 9)

[node name="CSGBox3D11" type="CSGBox3D" parent="."]
transform = Transform3D(1, 0, 0, 0, 1, 0, 0, 0, 1, 11.5, 3.5, -7)
material_override = ExtResource("1_fymm4")
size = Vector3(1, 1, 10)
