[gd_scene format=3 uid="uid://dcesfyj5e6pop"]

[node name="minitile_1x1_1" type="Node3D"]

[node name="CSGBox3D" type="CSGBox3D" parent="."]
transform = Transform3D(1, 0, 0, 0, 1, 0, 0, 0, 1, 0, -25, 0)
size = Vector3(8, 50, 8)
