[gd_scene load_steps=2 format=3 uid="uid://btd1puw2xo1ko"]

[ext_resource type="Material" uid="uid://bk1jki3qc31vu" path="res://textures/resources/CSG.tres" id="1_p7c4y"]

[node name="minitile_2x3_1" type="Node3D"]

[node name="CSGBox3D" type="CSGBox3D" parent="."]
transform = Transform3D(1, 0, 0, 0, 1, 0, 0, 0, 1, 0, -25, 0)
material_override = ExtResource("1_p7c4y")
size = Vector3(16, 50, 24)

[node name="CSGBox3D3" type="CSGBox3D" parent="."]
transform = Transform3D(1, 0, 0, 0, 1, 0, 0, 0, 1, -5.5, 3, 6)
material_override = ExtResource("1_p7c4y")
size = Vector3(1, 6, 12)

[node name="CSGBox3D4" type="CSGBox3D" parent="."]
transform = Transform3D(1, 0, 0, 0, 1, 0, 0, 0, 1, -5.5, 7.5, 6)
material_override = ExtResource("1_p7c4y")
size = Vector3(3, 3, 12)

[node name="CSGBox3D7" type="CSGBox3D" parent="."]
transform = Transform3D(1, 0, 0, 0, 1, 0, 0, 0, 1, -5.5, 3, -9.5)
material_override = ExtResource("1_p7c4y")
size = Vector3(1, 6, 5)

[node name="CSGBox3D8" type="CSGBox3D" parent="."]
transform = Transform3D(1, 0, 0, 0, 1, 0, 0, 0, 1, -5.5, 7.5, -9.5)
material_override = ExtResource("1_p7c4y")
size = Vector3(3, 3, 5)

[node name="CSGBox3D5" type="CSGBox3D" parent="."]
transform = Transform3D(1, 0, 0, 0, 1, 0, 0, 0, 1, -1.5, 4, -3.5)
material_override = ExtResource("1_p7c4y")
size = Vector3(1, 8, 9)

[node name="CSGBox3D6" type="CSGBox3D" parent="."]
transform = Transform3D(1, 0, 0, 0, 1, 0, 0, 0, 1, -1.5, 9.5, -3.5)
material_override = ExtResource("1_p7c4y")
size = Vector3(3, 3, 9)
