[gd_scene load_steps=2 format=3 uid="uid://dxhyj8mcu4vfh"]

[ext_resource type="Material" uid="uid://bk1jki3qc31vu" path="res://textures/resources/CSG.tres" id="1_rq251"]

[node name="minitile_2x2_1" type="Node3D"]

[node name="CSGBox3D" type="CSGBox3D" parent="."]
transform = Transform3D(1, 0, 0, 0, 1, 0, 0, 0, 1, 0, -25, 0)
material_override = ExtResource("1_rq251")
size = Vector3(16, 50, 16)

[node name="CSGBox3D4" type="CSGBox3D" parent="."]
transform = Transform3D(1, 0, 0, 0, 1, 0, 0, 0, 1, 7.5, 3.5, 0)
size = Vector3(1, 1, 14)
material = ExtResource("1_rq251")

[node name="CSGBox3D5" type="CSGBox3D" parent="."]
transform = Transform3D(1, 0, 0, 0, 1, 0, 0, 0, 1, -7.5, 3.5, 0)
size = Vector3(1, 1, 14)
material = ExtResource("1_rq251")

[node name="CSGBox3D6" type="CSGBox3D" parent="."]
transform = Transform3D(1, 0, 0, 0, 1, 0, 0, 0, 1, 0, 3.5, -7.5)
size = Vector3(16, 1, 1)
material = ExtResource("1_rq251")

[node name="CSGBox3D7" type="CSGBox3D" parent="."]
transform = Transform3D(1, 0, 0, 0, 1, 0, 0, 0, 1, 0, 3.5, 7.5)
size = Vector3(16, 1, 1)
material = ExtResource("1_rq251")

[node name="CSGBox3D2" type="CSGBox3D" parent="."]
transform = Transform3D(1, 0, 0, 0, 1, 0, 0, 0, 1, -1, 3.5, -2)
size = Vector3(6, 1, 10)
material = ExtResource("1_rq251")

[node name="CSGBox3D10" type="CSGBox3D" parent="."]
transform = Transform3D(1, 0, 0, 0, 1, 0, 0, 0, 1, -1, 1.5, -3.5)
size = Vector3(4, 3, 9)
material = ExtResource("1_rq251")

[node name="CSGBox3D11" type="CSGBox3D" parent="."]
transform = Transform3D(1, 0, 0, 0, 1, 0, 0, 0, 1, -0.5, 10.5, 0.5)
size = Vector3(5, 5, 5)
material = ExtResource("1_rq251")

[node name="CSGBox3D12" type="CSGBox3D" parent="."]
transform = Transform3D(1, 0, 0, 0, 1, 0, 0, 0, 1, -1, 8, 1)
size = Vector3(2, 8, 2)
material = ExtResource("1_rq251")
