[gd_scene load_steps=2 format=3 uid="uid://c1flb7nkjluf4"]

[ext_resource type="Material" uid="uid://bk1jki3qc31vu" path="res://textures/resources/CSG.tres" id="1_ub8i5"]

[node name="minitile_1x2_1" type="Node3D"]

[node name="CSGBox3D5" type="CSGBox3D" parent="."]
transform = Transform3D(1, 0, 0, 0, 1, 0, 0, 0, 1, -1.5, 2, -4.5)
size = Vector3(5, 4, 7)
material = ExtResource("1_ub8i5")

[node name="CSGBox3D14" type="CSGBox3D" parent="."]
transform = Transform3D(1, 0, 0, 0, 1, 0, 0, 0, 1, -0.5, 1, -3)
size = Vector3(5, 2, 8)
material = ExtResource("1_ub8i5")

[node name="CSGBox3D9" type="CSGBox3D" parent="."]
transform = Transform3D(1, 0, 0, 0, 1, 0, 0, 0, 1, -0.5, 0.5, 1.5)
size = Vector3(3, 1, 9)
material = ExtResource("1_ub8i5")

[node name="CSGBox3D10" type="CSGBox3D" parent="."]
transform = Transform3D(1, 0, 0, 0, 1, 0, 0, 0, 1, 2.5, 0.5, -3)
size = Vector3(1, 1, 6)
material = ExtResource("1_ub8i5")

[node name="CSGBox3D" type="CSGBox3D" parent="."]
transform = Transform3D(1, 0, 0, 0, 1, 0, 0, 0, 1, 0, -25, 0)
size = Vector3(8, 50, 16)
material = ExtResource("1_ub8i5")
