[gd_scene load_steps=2 format=3 uid="uid://dxk7w2uqqcsdo"]

[ext_resource type="Material" uid="uid://bk1jki3qc31vu" path="res://textures/resources/CSG.tres" id="1_y4dj7"]

[node name="minitile_2x5_1" type="Node3D"]

[node name="CSGBox3D" type="CSGBox3D" parent="."]
transform = Transform3D(1, 0, 0, 0, 1, 0, 0, 0, 1, 0, -25, 0)
material_override = ExtResource("1_y4dj7")
size = Vector3(16, 50, 40)

[node name="CSGBox3D11" type="CSGBox3D" parent="."]
transform = Transform3D(1, 0, 0, 0, 1, 0, 0, 0, 1, -7.5, 0.5, 8)
size = Vector3(1, 1, 20)
material = ExtResource("1_y4dj7")

[node name="CSGBox3D16" type="CSGBox3D" parent="."]
transform = Transform3D(1, 0, 0, 0, 1, 0, 0, 0, 1, 7.5, 0.5, 5)
size = Vector3(1, 1, 26)
material = ExtResource("1_y4dj7")

[node name="CSGBox3D12" type="CSGBox3D" parent="."]
transform = Transform3D(1, 0, 0, 0, 1, 0, 0, 0, 1, 0, 0.5, 19)
size = Vector3(16, 1, 2)
material = ExtResource("1_y4dj7")

[node name="CSGBox3D13" type="CSGBox3D" parent="."]
transform = Transform3D(1, 0, 0, 0, 1, 0, 0, 0, 1, 0, 0.5, -19.5)
size = Vector3(16, 1, 1)
material = ExtResource("1_y4dj7")

[node name="CSGBox3D14" type="CSGBox3D" parent="."]
transform = Transform3D(1, 0, 0, 0, 1, 0, 0, 0, 1, -6.5, 0.5, -10.5)
size = Vector3(3, 1, 17)
material = ExtResource("1_y4dj7")

[node name="CSGBox3D15" type="CSGBox3D" parent="."]
transform = Transform3D(1, 0, 0, 0, 1, 0, 0, 0, 1, 6, 0.5, -13.5)
size = Vector3(4, 1, 11)
material = ExtResource("1_y4dj7")

[node name="CSGBox3D17" type="CSGBox3D" parent="."]
transform = Transform3D(1, 0, 0, 0, 1, 0, 0, 0, 1, 5, 0.5, 12.5)
size = Vector3(4, 1, 11)
material = ExtResource("1_y4dj7")
