[gd_scene load_steps=2 format=3 uid="uid://dxbln1war02rl"]

[ext_resource type="Material" uid="uid://bk1jki3qc31vu" path="res://textures/resources/CSG.tres" id="1_a8xwc"]

[node name="minitile_2x2_1" type="Node3D"]

[node name="CSGBox3D" type="CSGBox3D" parent="."]
transform = Transform3D(1, 0, 0, 0, 1, 0, 0, 0, 1, 0, -25, 0)
material_override = ExtResource("1_a8xwc")
size = Vector3(16, 50, 16)

[node name="CSGBox3D18" type="CSGBox3D" parent="."]
transform = Transform3D(1, 0, 0, 0, 1, 0, 0, 0, 1, 5, 1.5, 1.5)
size = Vector3(2, 1, 9)
material = ExtResource("1_a8xwc")

[node name="CSGBox3D19" type="CSGBox3D" parent="."]
transform = Transform3D(1, 0, 0, 0, 1, 0, 0, 0, 1, 0.5, 1.5, 1.5)
size = Vector3(7, 1, 3)
material = ExtResource("1_a8xwc")

[node name="CSGBox3D20" type="CSGBox3D" parent="."]
transform = Transform3D(1, 0, 0, 0, 1, 0, 0, 0, 1, 3.5, 1.5, 4.5)
size = Vector3(1, 1, 3)
material = ExtResource("1_a8xwc")

[node name="CSGBox3D16" type="CSGBox3D" parent="."]
transform = Transform3D(1, 0, 0, 0, 1, 0, 0, 0, 1, -1.5, 1.5, 5)
size = Vector3(9, 1, 4)
material = ExtResource("1_a8xwc")

[node name="CSGBox3D17" type="CSGBox3D" parent="."]
transform = Transform3D(1, 0, 0, 0, 1, 0, 0, 0, 1, -1, 1.5, -3.5)
size = Vector3(10, 1, 7)
material = ExtResource("1_a8xwc")

[node name="CSGBox3D2" type="CSGBox3D" parent="."]
transform = Transform3D(1, 0, 0, 0, 1, 0, 0, 0, 1, 0, 0.5, 0)
size = Vector3(16, 1, 16)
material = ExtResource("1_a8xwc")
