[gd_scene load_steps=2 format=3 uid="uid://tyfqfiy6xyqq"]

[ext_resource type="Material" uid="uid://bk1jki3qc31vu" path="res://textures/resources/CSG.tres" id="1_fj3qv"]

[node name="minitile_1x1_1" type="Node3D"]

[node name="CSGBox3D" type="CSGBox3D" parent="."]
transform = Transform3D(1, 0, 0, 0, 1, 0, 0, 0, 1, 0, -25, 0)
size = Vector3(8, 50, 8)
material = ExtResource("1_fj3qv")

[node name="CSGBox3D2" type="CSGBox3D" parent="."]
transform = Transform3D(1, 0, 0, 0, 1, 0, 0, 0, 1, -3.5, 3.5, 0)
material_override = ExtResource("1_fj3qv")
size = Vector3(1, 7, 8)

[node name="CSGBox3D3" type="CSGBox3D" parent="."]
transform = Transform3D(1, 0, 0, 0, 1, 0, 0, 0, 1, 3.5, 3.5, 0)
material_override = ExtResource("1_fj3qv")
size = Vector3(1, 7, 8)

[node name="CSGBox3D4" type="CSGBox3D" parent="."]
transform = Transform3D(1, 0, 0, 0, 1, 0, 0, 0, 1, 0, 7.5, 0)
material_override = ExtResource("1_fj3qv")
size = Vector3(8, 1, 8)
