[gd_scene load_steps=2 format=3 uid="uid://dcpvollak51ay"]

[ext_resource type="Material" uid="uid://bk1jki3qc31vu" path="res://textures/resources/CSG.tres" id="1_hwnq2"]

[node name="minitile_2x4_1" type="Node3D"]

[node name="CSGBox3D" type="CSGBox3D" parent="."]
transform = Transform3D(1, 0, 0, 0, 1, 0, 0, 0, 1, 0, -25, 0)
material_override = ExtResource("1_hwnq2")
size = Vector3(16, 50, 32)

[node name="CSGBox3D3" type="CSGBox3D" parent="."]
transform = Transform3D(1, 0, 0, 0, 1, 0, 0, 0, 1, -0.5, 3, 11)
size = Vector3(1, 6, 4)
material = ExtResource("1_hwnq2")
metadata/_edit_group_ = true

[node name="CSGBox3D5" type="CSGBox3D" parent="."]
transform = Transform3D(1, 0, 0, 0, 1, 0, 0, 0, 1, 0.5, 1, 11.5)
size = Vector3(7, 2, 1)
material = ExtResource("1_hwnq2")
metadata/_edit_group_ = true

[node name="CSGBox3D4" type="CSGBox3D" parent="."]
transform = Transform3D(1, 0, 0, 0, 1, 0, 0, 0, 1, 1.5, 6.5, 11.5)
size = Vector3(9, 1, 7)
material = ExtResource("1_hwnq2")
metadata/_edit_group_ = true

[node name="CSGBox3D8" type="CSGBox3D" parent="."]
transform = Transform3D(1, 0, 0, 0, 1, 0, 0, 0, 1, 1.5, 11.5, 7.5)
size = Vector3(9, 1, 7)
material = ExtResource("1_hwnq2")
metadata/_edit_group_ = true

[node name="CSGBox3D6" type="CSGBox3D" parent="."]
transform = Transform3D(1, 0, 0, 0, 1, 0, 0, 0, 1, 2, 11, 8)
size = Vector3(2, 12, 2)
material = ExtResource("1_hwnq2")

[node name="CSGBox3D7" type="CSGBox3D" parent="."]
transform = Transform3D(1, 0, 0, 0, 1, 0, 0, 0, 1, 2, 18.5, 10)
size = Vector3(2, 11, 2)
material = ExtResource("1_hwnq2")
