[gd_scene load_steps=2 format=3 uid="uid://crgoy8176ypj7"]

[ext_resource type="Material" uid="uid://bk1jki3qc31vu" path="res://textures/resources/CSG.tres" id="1_xl6a2"]

[node name="minitile_1x4_0" type="Node3D"]

[node name="CSGBox3D" type="CSGBox3D" parent="."]
transform = Transform3D(1, 0, 0, 0, 1, 0, 0, 0, 1, 0, -25, 0)
size = Vector3(8, 50, 32)
material = ExtResource("1_xl6a2")

[node name="CSGBox3D4" type="CSGBox3D" parent="."]
transform = Transform3D(1, 0, 0, 0, 1, 0, 0, 0, 0.99, -0.004246, 0.91313, 2.00002)
size = Vector3(2, 2, 2)
material = ExtResource("1_xl6a2")

[node name="CSGBox3D6" type="CSGBox3D" parent="."]
transform = Transform3D(1, 0, 0, 0, 1, 0, 0, 0, 0.99, -0.00424576, 1.91313, -2.99998)
size = Vector3(4, 4, 4)
material = ExtResource("1_xl6a2")
