[gd_scene load_steps=2 format=3 uid="uid://c47p2b0mpn7sk"]

[ext_resource type="Material" uid="uid://bk1jki3qc31vu" path="res://textures/resources/CSG.tres" id="3_y43mr"]

[node name="minitile_3x3_1" type="Node3D"]

[node name="CSGBox3D" type="CSGBox3D" parent="."]
transform = Transform3D(1, 0, 0, 0, 1, 0, 0, 0, 1, 0, -25, 0)
material_override = ExtResource("3_y43mr")
size = Vector3(24, 50, 24)

[node name="CSGBox3D3" type="CSGBox3D" parent="."]
transform = Transform3D(1, 0, 0, 0, 1, 0, 0, 0, 1, -1, 4, -0.5)
size = Vector3(2, 2, 13)
material = ExtResource("3_y43mr")

[node name="CSGBox3D6" type="CSGBox3D" parent="."]
transform = Transform3D(1, 0, 0, 0, 1, 0, 0, 0, 1, -2, 9.5, 1)
size = Vector3(2, 13, 2)
material = ExtResource("3_y43mr")

[node name="CSGBox3D7" type="CSGBox3D" parent="."]
transform = Transform3D(1, 0, 0, 0, 1, 0, 0, 0, 1, -4, 16.5, 1)
size = Vector3(2, 3, 2)
material = ExtResource("3_y43mr")

[node name="CSGBox3D8" type="CSGBox3D" parent="."]
transform = Transform3D(1, 0, 0, 0, 1, 0, 0, 0, 1, -5, 18.5, 1)
size = Vector3(6, 1, 7)
material = ExtResource("3_y43mr")

[node name="CSGBox3D4" type="CSGBox3D" parent="."]
transform = Transform3D(1, 0, 0, 0, 1, 0, 0, 0, 1, -1, 3, 4.5)
size = Vector3(4, 6, 1)
material = ExtResource("3_y43mr")

[node name="CSGBox3D5" type="CSGBox3D" parent="."]
transform = Transform3D(1, 0, 0, 0, 1, 0, 0, 0, 1, -1, 3, -5.5)
size = Vector3(4, 6, 1)
material = ExtResource("3_y43mr")
