[gd_scene load_steps=2 format=3 uid="uid://dhptea7nu8bs2"]

[ext_resource type="Material" uid="uid://bk1jki3qc31vu" path="res://textures/resources/CSG.tres" id="5_ufdf5"]

[node name="minitile_2x5_1" type="Node3D"]

[node name="CSGBox3D" type="CSGBox3D" parent="."]
transform = Transform3D(1, 0, 0, 0, 1, 0, 0, 0, 1, 0, -25, 0)
material_override = ExtResource("5_ufdf5")
size = Vector3(16, 50, 40)

[node name="CSGBox3D3" type="CSGBox3D" parent="."]
transform = Transform3D(1, 0, 0, 0, 1, 0, 0, 0, 1, 0, 6.5, -0.5)
size = Vector3(4, 3, 13)
material = ExtResource("5_ufdf5")

[node name="CSGBox3D4" type="CSGBox3D" parent="."]
transform = Transform3D(1, 0, 0, 0, 1, 0, 0, 0, 1, 0, 3.5, 4.5)
size = Vector3(6, 7, 1)
material = ExtResource("5_ufdf5")

[node name="CSGBox3D8" type="CSGBox3D" parent="."]
transform = Transform3D(1, 0, 0, 0, 1, 0, 0, 0, 1, 0, 3.5, 0.5)
size = Vector3(6, 7, 1)
material = ExtResource("5_ufdf5")

[node name="CSGBox3D5" type="CSGBox3D" parent="."]
transform = Transform3D(1, 0, 0, 0, 1, 0, 0, 0, 1, 0.5, 12, -6.5)
size = Vector3(1, 8, 1)
material = ExtResource("5_ufdf5")

[node name="CSGBox3D6" type="CSGBox3D" parent="."]
transform = Transform3D(1, 0, 0, 0, 1, 0, 0, 0, 1, 0, 3.5, -7)
size = Vector3(2, 7, 6)
material = ExtResource("5_ufdf5")

[node name="CSGBox3D7" type="CSGBox3D" parent="."]
transform = Transform3D(1, 0, 0, 0, 1, 0, 0, 0, 1, 0, 18.5, -5)
size = Vector3(2, 7, 2)
material = ExtResource("5_ufdf5")

[node name="CSGBox3D9" type="CSGBox3D" parent="."]
transform = Transform3D(1, 0, 0, 0, 1, 0, 0, 0, 1, 0, 12, -3)
size = Vector3(2, 8, 2)
material = ExtResource("5_ufdf5")

[node name="CSGBox3D10" type="CSGBox3D" parent="."]
transform = Transform3D(1, 0, 0, 0, 1, 0, 0, 0, 1, 1, 19.5, -4.5)
size = Vector3(6, 1, 5)
material = ExtResource("5_ufdf5")
