[gd_scene load_steps=2 format=3 uid="uid://rw5arwu7xqi0"]

[ext_resource type="Material" uid="uid://bk1jki3qc31vu" path="res://textures/resources/CSG.tres" id="1_wvhsd"]

[node name="minitile_2x3_1" type="Node3D"]

[node name="CSGBox3D" type="CSGBox3D" parent="."]
transform = Transform3D(1, 0, 0, 0, 1, 0, 0, 0, 1, 0, -25, 0)
material_override = ExtResource("1_wvhsd")
size = Vector3(16, 50, 24)

[node name="CSGBox3D2" type="CSGBox3D" parent="."]
transform = Transform3D(1, 0, 0, 0, 1, 0, 0, 0, 1, -4, 0.5, -8)
size = Vector3(2, 5, 6)
material = ExtResource("1_wvhsd")

[node name="CSGBox3D5" type="CSGBox3D" parent="."]
transform = Transform3D(1, 0, 0, 0, 1, 0, 0, 0, 1, 2, 2.5, 2)
size = Vector3(2, 5, 16)
material = ExtResource("1_wvhsd")

[node name="CSGBox3D6" type="CSGBox3D" parent="."]
transform = Transform3D(1, 0, 0, 0, 1, 0, 0, 0, 1, 2, 2.5, -1)
size = Vector3(10, 5, 2)
material = ExtResource("1_wvhsd")

[node name="CSGBox3D9" type="CSGBox3D" parent="."]
transform = Transform3D(1, 0, 0, 0, 1, 0, 0, 0, 1, 2, 2.5, 5)
size = Vector3(10, 5, 2)
material = ExtResource("1_wvhsd")

[node name="CSGBox3D12" type="CSGBox3D" parent="."]
transform = Transform3D(1, 0, 0, 0, 1, 0, 0, 0, 1, 2, 3.5, 2)
size = Vector3(6, 7, 12)
material = ExtResource("1_wvhsd")
