[gd_scene load_steps=2 format=3 uid="uid://duxywy84tjdnn"]

[ext_resource type="Material" uid="uid://bk1jki3qc31vu" path="res://textures/resources/CSG.tres" id="1_dle1d"]

[node name="minitile_2x2_1" type="Node3D"]

[node name="CSGBox3D" type="CSGBox3D" parent="."]
transform = Transform3D(1, 0, 0, 0, 1, 0, 0, 0, 1, 0, -25, 0)
material_override = ExtResource("1_dle1d")
size = Vector3(16, 50, 16)

[node name="CSGBox3D19" type="CSGBox3D" parent="."]
transform = Transform3D(1, 0, 0, 0, 1, 0, 0, 0, 1, -4, 2, 4)
size = Vector3(8, 4, 8)
material = ExtResource("1_dle1d")

[node name="CSGBox3D21" type="CSGBox3D" parent="."]
transform = Transform3D(1, 0, 0, 0, 1, 0, 0, 0, 1, -4, 10, -4)
size = Vector3(8, 4, 8)
material = ExtResource("1_dle1d")

[node name="CSGBox3D20" type="CSGBox3D" parent="."]
transform = Transform3D(1, 0, 0, 0, 1, 0, 0, 0, 1, -2.5, 6, 0)
size = Vector3(11, 4, 16)
material = ExtResource("1_dle1d")
