[gd_scene load_steps=2 format=3 uid="uid://dh4hu8sdqifhs"]

[ext_resource type="Material" uid="uid://bk1jki3qc31vu" path="res://textures/resources/CSG.tres" id="1_mlw4g"]

[node name="minitile_2x5_1" type="Node3D"]

[node name="CSGBox3D" type="CSGBox3D" parent="."]
transform = Transform3D(1, 0, 0, 0, 1, 0, 0, 0, 1, 0, -25, 0)
material_override = ExtResource("1_mlw4g")
size = Vector3(16, 50, 40)

[node name="CSGBox3D19" type="CSGBox3D" parent="."]
transform = Transform3D(1, 0, 0, 0, 1, 0, 0, 0, 1, 0, 2, -6)
size = Vector3(16, 4, 20)
material = ExtResource("1_mlw4g")

[node name="CSGBox3D21" type="CSGBox3D" parent="."]
transform = Transform3D(1, 0, 0, 0, 1, 0, 0, 0, 1, 0, 10, -6)
size = Vector3(16, 4, 20)
material = ExtResource("1_mlw4g")

[node name="CSGBox3D20" type="CSGBox3D" parent="."]
transform = Transform3D(1, 0, 0, 0, 1, 0, 0, 0, 1, 0, 6, 2)
size = Vector3(16, 4, 36)
material = ExtResource("1_mlw4g")
