[gd_scene load_steps=2 format=3 uid="uid://cbm0h8kxampjn"]

[ext_resource type="Material" uid="uid://bk1jki3qc31vu" path="res://textures/resources/CSG.tres" id="1_feim3"]

[node name="minitile_2x4_1" type="Node3D"]

[node name="CSGBox3D" type="CSGBox3D" parent="."]
transform = Transform3D(1, 0, 0, 0, 1, 0, 0, 0, 1, 0, -25, 0)
material_override = ExtResource("1_feim3")
size = Vector3(16, 50, 32)

[node name="CSGBox3D10" type="CSGBox3D" parent="."]
transform = Transform3D(1, 0, 0, 0, 1, 0, 0, 0, 1, 0, 2, 12)
size = Vector3(12, 4, 4)
material = ExtResource("1_feim3")

[node name="CSGBox3D11" type="CSGBox3D" parent="."]
transform = Transform3D(1, 0, 0, 0, 1, 0, 0, 0, 1, 0, 8, 0)
size = Vector3(12, 8, 28)
material = ExtResource("1_feim3")

[node name="CSGBox3D14" type="CSGBox3D" parent="."]
transform = Transform3D(1, 0, 0, 0, 1, 0, 0, 0, 1, 3, 2, 7)
size = Vector3(6, 4, 6)
material = ExtResource("1_feim3")

[node name="CSGBox3D15" type="CSGBox3D" parent="."]
transform = Transform3D(1, 0, 0, 0, 1, 0, 0, 0, 1, -4, 1, -12)
size = Vector3(2, 4, 2)
material = ExtResource("1_feim3")

[node name="CSGBox3D17" type="CSGBox3D" parent="."]
transform = Transform3D(1, 0, 0, 0, 1, 0, 0, 0, 1, -3, 12.5, -7)
size = Vector3(6, 1, 14)
material = ExtResource("1_feim3")
