[gd_scene load_steps=2 format=3 uid="uid://iu8jpa1vwbwi"]

[ext_resource type="Material" uid="uid://bk1jki3qc31vu" path="res://textures/resources/CSG.tres" id="1_ah6ft"]

[node name="minitile_2x3_1" type="Node3D"]

[node name="CSGBox3D" type="CSGBox3D" parent="."]
transform = Transform3D(1, 0, 0, 0, 1, 0, 0, 0, 1, 0, -25, 0)
material_override = ExtResource("1_ah6ft")
size = Vector3(16, 50, 24)

[node name="CSGBox3D6" type="CSGBox3D" parent="."]
transform = Transform3D(1, 0, 0, 0, 1, 0, 0, 0, 1, -4, 0.5, 0)
material_override = ExtResource("1_ah6ft")
size = Vector3(4, 1, 24)

[node name="CSGBox3D8" type="CSGBox3D" parent="."]
transform = Transform3D(1, 0, 0, 0, 1, 0, 0, 0, 1, 3, 0.5, -6)
material_override = ExtResource("1_ah6ft")
size = Vector3(10, 1, 4)

[node name="CSGBox3D7" type="CSGBox3D" parent="."]
transform = Transform3D(1, 0, 0, 0, 1, 0, 0, 0, 1, -4, 1.5, 0)
material_override = ExtResource("1_ah6ft")
size = Vector3(2, 1, 24)

[node name="CSGBox3D9" type="CSGBox3D" parent="."]
transform = Transform3D(1, 0, 0, 0, 1, 0, 0, 0, 1, 2.5, 1.5, -6)
material_override = ExtResource("1_ah6ft")
size = Vector3(11, 1, 2)
