[gd_scene load_steps=2 format=3 uid="uid://c2jcavnvelgxw"]

[ext_resource type="Material" uid="uid://bk1jki3qc31vu" path="res://textures/resources/CSG.tres" id="1_1aop2"]

[node name="minitile_2x2_1" type="Node3D"]

[node name="CSGBox3D" type="CSGBox3D" parent="."]
transform = Transform3D(1, 0, 0, 0, 1, 0, 0, 0, 1, 0, -25, 0)
material_override = ExtResource("1_1aop2")
size = Vector3(16, 50, 16)

[node name="CSGBox3D2" type="CSGBox3D" parent="."]
transform = Transform3D(1, 0, 0, 0, 1, 0, 0, 0, 1, -7, 2.5, -2)
material_override = ExtResource("1_1aop2")
size = Vector3(2, 5, 12)

[node name="CSGBox3D3" type="CSGBox3D" parent="."]
transform = Transform3D(1, 0, 0, 0, 1, 0, 0, 0, 1, -1, 2.5, 2)
material_override = ExtResource("1_1aop2")
size = Vector3(2, 5, 4)

[node name="CSGBox3D4" type="CSGBox3D" parent="."]
transform = Transform3D(1, 0, 0, 0, 1, 0, 0, 0, 1, -4, 4, 2)
material_override = ExtResource("1_1aop2")
size = Vector3(4, 2, 4)

[node name="CSGBox3D5" type="CSGBox3D" parent="."]
transform = Transform3D(1, 0, 0, 0, 1, 0, 0, 0, 1, 7, 7.5, -6)
material_override = ExtResource("1_1aop2")
size = Vector3(2, 5, 4)

[node name="CSGBox3D9" type="CSGBox3D" parent="."]
transform = Transform3D(1, 0, 0, 0, 1, 0, 0, 0, 1, 1, 7.5, -6)
material_override = ExtResource("1_1aop2")
size = Vector3(2, 5, 4)

[node name="CSGBox3D8" type="CSGBox3D" parent="."]
transform = Transform3D(1, 0, 0, 0, 1, 0, 0, 0, 1, 4, 9, -6)
material_override = ExtResource("1_1aop2")
size = Vector3(4, 2, 4)

[node name="CSGBox3D6" type="CSGBox3D" parent="."]
transform = Transform3D(1, 0, 0, 0, 1, 0, 0, 0, 1, 7, 2.5, -4)
material_override = ExtResource("1_1aop2")
size = Vector3(2, 5, 8)

[node name="CSGBox3D7" type="CSGBox3D" parent="."]
transform = Transform3D(1, 0, 0, 0, 1, 0, 0, 0, 1, 0, 4, -4)
material_override = ExtResource("1_1aop2")
size = Vector3(12, 2, 8)
