[gd_scene load_steps=2 format=3 uid="uid://co7p3rg5wpaif"]

[ext_resource type="Material" uid="uid://bk1jki3qc31vu" path="res://textures/resources/CSG.tres" id="1_ai4fj"]

[node name="minitile_1x1_1" type="Node3D"]

[node name="CSGBox3D" type="CSGBox3D" parent="."]
transform = Transform3D(1, 0, 0, 0, 1, 0, 0, 0, 1, 0, -25, 0)
material_override = ExtResource("1_ai4fj")
size = Vector3(8, 50, 8)

[node name="CSGBox3D68" type="CSGBox3D" parent="."]
transform = Transform3D(1, 0, 0, 0, 1, 0, 0, 0, 1, 3.5, 4.5, 1)
material_override = ExtResource("1_ai4fj")
size = Vector3(1, 9, 6)

[node name="CSGBox3D69" type="CSGBox3D" parent="."]
transform = Transform3D(1, 0, 0, 0, 1, 0, 0, 0, 1, -3.5, 4.5, 1)
material_override = ExtResource("1_ai4fj")
size = Vector3(1, 9, 6)

[node name="CSGBox3D75" type="CSGBox3D" parent="."]
transform = Transform3D(1, 0, 0, 0, 1, 0, 0, 0, 1, 0, 4.5, -1.5)
material_override = ExtResource("1_ai4fj")
size = Vector3(2, 9, 1)

[node name="CSGBox3D43" type="CSGBox3D" parent="."]
transform = Transform3D(1, 0, 0, 0, 1, 0, 0, 0, 1, 1, 4.5, 1)
material_override = ExtResource("1_ai4fj")
size = Vector3(4, 1, 4)

[node name="CSGBox3D45" type="CSGBox3D" parent="."]
transform = Transform3D(1, 0, 0, 0, 1, 0, 0, 0, 1, 0, 3.5, 3.5)
material_override = ExtResource("1_ai4fj")
size = Vector3(6, 7, 1)

[node name="CSGBox3D46" type="CSGBox3D" parent="."]
transform = Transform3D(1, 0, 0, 0, 1, 0, 0, 0, 1, 0, 8, 3.5)
material_override = ExtResource("1_ai4fj")
size = Vector3(2, 2, 1)

[node name="CSGBox3D44" type="CSGBox3D" parent="."]
transform = Transform3D(1, 0, 0, 0, 1, 0, 0, 0, 1, 0, 9.5, 1)
material_override = ExtResource("1_ai4fj")
size = Vector3(8, 1, 6)
