[gd_scene load_steps=2 format=3 uid="uid://d5w4x3l4pumx"]

[ext_resource type="Material" uid="uid://bk1jki3qc31vu" path="res://textures/resources/CSG.tres" id="1_ank3g"]

[node name="minitile_3x4_1" type="Node3D"]

[node name="CSGBox3D" type="CSGBox3D" parent="."]
transform = Transform3D(1, 0, 0, 0, 1, 0, 0, 0, 1, 0, -25, 0)
size = Vector3(24, 50, 32)
material = ExtResource("1_ank3g")

[node name="CSGBox3D8" type="CSGBox3D" parent="."]
transform = Transform3D(1, 0, 0, 0, 1, 0, 0, 0, 1, -7.5, 2.5, -11.5)
material_override = ExtResource("1_ank3g")
size = Vector3(7, 1, 1)

[node name="CSGBox3D11" type="CSGBox3D" parent="."]
transform = Transform3D(1, 0, 0, 0, 1, 0, 0, 0, 1, -7.5, 0.5, 6.5)
material_override = ExtResource("1_ank3g")
size = Vector3(7, 1, 1)

[node name="CSGBox3D9" type="CSGBox3D" parent="."]
transform = Transform3D(1, 0, 0, 0, 1, 0, 0, 0, 1, -7.5, 2.5, -11.5)
material_override = ExtResource("1_ank3g")
size = Vector3(1, 1, 7)

[node name="CSGBox3D10" type="CSGBox3D" parent="."]
transform = Transform3D(1, 0, 0, 0, 1, 0, 0, 0, 1, -7.5, 2.5, -11.5)
material_override = ExtResource("1_ank3g")
size = Vector3(1, 7, 1)

[node name="CSGBox3D20" type="CSGBox3D" parent="."]
transform = Transform3D(1, 0, 0, 0, 1, 0, 0, 0, 1, -1.5, 6.5, -5.5)
material_override = ExtResource("1_ank3g")
size = Vector3(15, 1, 1)

[node name="CSGBox3D21" type="CSGBox3D" parent="."]
transform = Transform3D(1, 0, 0, 0, 1, 0, 0, 0, 1, -1.5, 6.5, -5.5)
material_override = ExtResource("1_ank3g")
size = Vector3(1, 1, 15)

[node name="CSGBox3D23" type="CSGBox3D" parent="."]
transform = Transform3D(1, 0, 0, 0, 1, 0, 0, 0, 1, 7.5, 0.5, 6.5)
material_override = ExtResource("1_ank3g")
size = Vector3(1, 1, 15)

[node name="CSGBox3D22" type="CSGBox3D" parent="."]
transform = Transform3D(1, 0, 0, 0, 1, 0, 0, 0, 1, -1.5, 6.5, -5.5)
material_override = ExtResource("1_ank3g")
size = Vector3(1, 15, 1)
