[gd_scene load_steps=2 format=3 uid="uid://ci7wd2o2ixran"]

[ext_resource type="Material" uid="uid://bk1jki3qc31vu" path="res://textures/resources/CSG.tres" id="1_d8583"]

[node name="minitile_2x2_1" type="Node3D"]

[node name="CSGBox3D" type="CSGBox3D" parent="."]
transform = Transform3D(1, 0, 0, 0, 1, 0, 0, 0, 1, 0, -25, 0)
material_override = ExtResource("1_d8583")
size = Vector3(16, 50, 16)

[node name="CSGBox3D2" type="CSGBox3D" parent="."]
transform = Transform3D(1, 0, 0, 0, 1, 0, 0, 0, 1, 2, 2, -4)
material_override = ExtResource("1_d8583")
size = Vector3(2, 4, 2)

[node name="CSGBox3D6" type="CSGBox3D" parent="."]
transform = Transform3D(1, 0, 0, 0, 1, 0, 0, 0, 1, 6, 2, -5)
material_override = ExtResource("1_d8583")
size = Vector3(2, 4, 2)

[node name="CSGBox3D4" type="CSGBox3D" parent="."]
transform = Transform3D(1, 0, 0, 0, 1, 0, 0, 0, 1, 5, 2, 2)
material_override = ExtResource("1_d8583")
size = Vector3(4, 4, 4)

[node name="CSGBox3D5" type="CSGBox3D" parent="."]
transform = Transform3D(1, 0, 0, 0, 1, 0, 0, 0, 1, -4, 2, -2)
material_override = ExtResource("1_d8583")
size = Vector3(6, 4, 6)

[node name="CSGBox3D3" type="CSGBox3D" parent="."]
transform = Transform3D(1, 0, 0, 0, 1, 0, 0, 0, 1, -3.5, 2, 4.5)
material_override = ExtResource("1_d8583")
size = Vector3(3, 4, 3)
