[gd_scene load_steps=2 format=3 uid="uid://3bkjlvqwcl0l"]

[ext_resource type="Material" uid="uid://bk1jki3qc31vu" path="res://textures/resources/CSG.tres" id="1_4q5we"]

[node name="minitile_1x1_1" type="Node3D"]

[node name="CSGBox3D" type="CSGBox3D" parent="."]
transform = Transform3D(1, 0, 0, 0, 1, 0, 0, 0, 1, 0, -25, 0)
size = Vector3(8, 50, 8)
material = ExtResource("1_4q5we")

[node name="CSGBox3D2" type="CSGBox3D" parent="."]
transform = Transform3D(1, 0, 0, 0, 1, 0, 0, 0, 1, 0.5, 6.5, 0.5)
material_override = ExtResource("1_4q5we")
size = Vector3(1, 13, 1)

[node name="CSGBox3D3" type="CSGBox3D" parent="."]
transform = Transform3D(1, 0, 0, 0, 1, 0, 0, 0, 1, 0.5, 0.5, 0.5)
material_override = ExtResource("1_4q5we")
size = Vector3(5, 1, 5)

[node name="CSGBox3D4" type="CSGBox3D" parent="."]
transform = Transform3D(1, 0, 0, 0, 1, 0, 0, 0, 1, 0.5, 2.5, 0.5)
material_override = ExtResource("1_4q5we")
size = Vector3(5, 1, 5)

[node name="CSGBox3D5" type="CSGBox3D" parent="."]
transform = Transform3D(1, 0, 0, 0, 1, 0, 0, 0, 1, 0.5, 4.5, 0.5)
material_override = ExtResource("1_4q5we")
size = Vector3(5, 1, 5)

[node name="CSGBox3D6" type="CSGBox3D" parent="."]
transform = Transform3D(1, 0, 0, 0, 1, 0, 0, 0, 1, 0.5, 7.5, 0.5)
material_override = ExtResource("1_4q5we")
size = Vector3(5, 1, 5)

[node name="CSGBox3D7" type="CSGBox3D" parent="."]
transform = Transform3D(1, 0, 0, 0, 1, 0, 0, 0, 1, 0.5, 10.5, 0.5)
material_override = ExtResource("1_4q5we")
size = Vector3(5, 1, 5)

[node name="CSGBox3D8" type="CSGBox3D" parent="."]
transform = Transform3D(1, 0, 0, 0, 1, 0, 0, 0, 1, 0.5, 14, 0.5)
material_override = ExtResource("1_4q5we")
size = Vector3(5, 2, 5)
