[gd_scene load_steps=2 format=3 uid="uid://b2nhcxlmubg0e"]

[ext_resource type="Material" uid="uid://bk1jki3qc31vu" path="res://textures/resources/CSG.tres" id="1_hakk1"]

[node name="minitile_2x4_1" type="Node3D"]

[node name="CSGBox3D" type="CSGBox3D" parent="."]
transform = Transform3D(1, 0, 0, 0, 1, 0, 0, 0, 1, 0, -25, 0)
material_override = ExtResource("1_hakk1")
size = Vector3(16, 50, 32)

[node name="CSGBox3D8" type="CSGBox3D" parent="."]
transform = Transform3D(1, 0, 0, 0, 1, 0, 0, 0, 1, -3.5, 0, -7.5)
size = Vector3(3, 6, 5)
material = ExtResource("1_hakk1")

[node name="CSGBox3D10" type="CSGBox3D" parent="."]
transform = Transform3D(1, 0, 0, 0, 1, 0, 0, 0, 1, -3.5, 6, -0.5)
size = Vector3(3, 6, 19)
material = ExtResource("1_hakk1")

[node name="CSGBox3D11" type="CSGBox3D" parent="."]
transform = Transform3D(1, 0, 0, 0, 1, 0, 0, 0, 1, -3.5, 6, 1)
size = Vector3(5, 4, 14)
material = ExtResource("1_hakk1")

[node name="CSGBox3D9" type="CSGBox3D" parent="."]
transform = Transform3D(1, 0, 0, 0, 1, 0, 0, 0, 1, -3.5, 1.5, -7.5)
size = Vector3(5, 13, 3)
material = ExtResource("1_hakk1")
