[gd_scene load_steps=2 format=3 uid="uid://q2qrvccbpjul"]

[ext_resource type="Material" uid="uid://bk1jki3qc31vu" path="res://textures/resources/CSG.tres" id="1_ytq3t"]

[node name="minitile_1x3_1" type="Node3D"]

[node name="CSGBox3D" type="CSGBox3D" parent="."]
transform = Transform3D(1, 0, 0, 0, 1, 0, 0, 0, 1, 0, -25, 0)
size = Vector3(8, 50, 24)
material = ExtResource("1_ytq3t")

[node name="CSGBox3D23" type="CSGBox3D" parent="."]
transform = Transform3D(1, 0, 0, 0, 1, 0, 0, 0, 1, -0.5, 6.5, -6.5)
size = Vector3(1, 5, 1)
material = ExtResource("1_ytq3t")

[node name="CSGBox3D21" type="CSGBox3D" parent="."]
transform = Transform3D(1, 0, 0, 0, 1, 0, 0, 0, 1, -1.5, 1.5, -8.5)
size = Vector3(1, 3, 1)
material = ExtResource("1_ytq3t")

[node name="CSGBox3D24" type="CSGBox3D" parent="."]
transform = Transform3D(1, 0, 0, 0, 1, 0, 0, 0, 1, 0.5, 2, -0.5)
size = Vector3(1, 4, 1)
material = ExtResource("1_ytq3t")

[node name="CSGBox3D25" type="CSGBox3D" parent="."]
transform = Transform3D(1, 0, 0, 0, 1, 0, 0, 0, 1, -1.5, 3, 7.5)
size = Vector3(1, 6, 1)
material = ExtResource("1_ytq3t")

[node name="CSGBox3D22" type="CSGBox3D" parent="."]
transform = Transform3D(1, 0, 0, 0, 1, 0, 0, 0, 1, 0.5, 9.5, -7.5)
size = Vector3(7, 1, 9)
material = ExtResource("1_ytq3t")

[node name="CSGBox3D20" type="CSGBox3D" parent="."]
transform = Transform3D(1, 0, 0, 0, 1, 0, 0, 0, 1, -0.5, 3.5, -7.5)
size = Vector3(5, 1, 5)
material = ExtResource("1_ytq3t")

[node name="CSGBox3D26" type="CSGBox3D" parent="."]
transform = Transform3D(1, 0, 0, 0, 1, 0, 0, 0, 1, -0.5, 4.5, -0.5)
size = Vector3(7, 1, 7)
material = ExtResource("1_ytq3t")

[node name="CSGBox3D27" type="CSGBox3D" parent="."]
transform = Transform3D(1, 0, 0, 0, 1, 0, 0, 0, 1, 0.5, 6.5, 7.5)
size = Vector3(7, 1, 5)
material = ExtResource("1_ytq3t")
