[gd_scene load_steps=2 format=3 uid="uid://xi263twui131"]

[ext_resource type="Material" uid="uid://bk1jki3qc31vu" path="res://textures/resources/CSG.tres" id="1_8kbfw"]

[node name="minitile_2x2_1" type="Node3D"]

[node name="CSGBox3D" type="CSGBox3D" parent="."]
transform = Transform3D(1, 0, 0, 0, 1, 0, 0, 0, 1, 0, -25, 0)
material_override = ExtResource("1_8kbfw")
size = Vector3(16, 50, 16)

[node name="CSGBox3D2" type="CSGBox3D" parent="."]
transform = Transform3D(1, 0, 0, 0, 1, 0, 0, 0, 1, 5.5, 5.5, 3.5)
material_override = ExtResource("1_8kbfw")
size = Vector3(1, 7, 1)

[node name="CSGBox3D6" type="CSGBox3D" parent="."]
transform = Transform3D(1, 0, 0, 0, 1, 0, 0, 0, 1, 3, 9.5, 0)
material_override = ExtResource("1_8kbfw")
size = Vector3(8, 1, 12)

[node name="CSGBox3D5" type="CSGBox3D" parent="."]
transform = Transform3D(1, 0, 0, 0, 1, 0, 0, 0, 1, 5, 1, 3)
material_override = ExtResource("1_8kbfw")
size = Vector3(2, 2, 2)

[node name="CSGBox3D8" type="CSGBox3D" parent="."]
transform = Transform3D(1, 0, 0, 0, 1, 0, 0, 0, 1, -4.5, 6.5, -4.5)
material_override = ExtResource("1_8kbfw")
size = Vector3(7, 1, 7)

[node name="CSGBox3D4" type="CSGBox3D" parent="."]
transform = Transform3D(1, 0, 0, 0, 1, 0, 0, 0, 1, -4.5, 3, -5.5)
material_override = ExtResource("1_8kbfw")
size = Vector3(1, 6, 1)

[node name="CSGBox3D9" type="CSGBox3D" parent="."]
transform = Transform3D(1, 0, 0, 0, 1, 0, 0, 0, 1, -3.5, 6.5, 4.5)
material_override = ExtResource("1_8kbfw")
size = Vector3(5, 1, 7)

[node name="CSGBox3D7" type="CSGBox3D" parent="."]
transform = Transform3D(1, 0, 0, 0, 1, 0, 0, 0, 1, -3.5, 3, 2.5)
material_override = ExtResource("1_8kbfw")
size = Vector3(1, 6, 1)
