[gd_scene load_steps=2 format=3 uid="uid://budc4cyhfgx8x"]

[ext_resource type="Material" uid="uid://bk1jki3qc31vu" path="res://textures/resources/CSG.tres" id="1_wunca"]

[node name="minitile_3x4_1" type="Node3D"]

[node name="CSGBox3D" type="CSGBox3D" parent="."]
transform = Transform3D(1, 0, 0, 0, 1, 0, 0, 0, 1, 0, -25, 0)
size = Vector3(24, 50, 32)
material = ExtResource("1_wunca")

[node name="CSGBox3D4" type="CSGBox3D" parent="."]
transform = Transform3D(1, 0, 0, 0, 1, 0, 0, 0, 1, 5.48592, 11, 6.498)
size = Vector3(1, 2, 11)
material = ExtResource("1_wunca")

[node name="CSGBox3D11" type="CSGBox3D" parent="."]
transform = Transform3D(1, 0, 0, 0, 1, 0, 0, 0, 1, 5.48592, 5, 12.998)
size = Vector3(1, 14, 2)
material = ExtResource("1_wunca")

[node name="CSGBox3D12" type="CSGBox3D" parent="."]
transform = Transform3D(1, 0, 0, 0, 1, 0, 0, 0, 1, 5.48592, 9.5, 1.998)
size = Vector3(1, 1, 2)
material = ExtResource("1_wunca")

[node name="CSGBox3D13" type="CSGBox3D" parent="."]
transform = Transform3D(1, 0, 0, 0, 1, 0, 0, 0, 1, -6.01408, 2, 10.498)
size = Vector3(4, 4, 3)
material = ExtResource("1_wunca")

[node name="CSGBox3D3" type="CSGBox3D" parent="."]
transform = Transform3D(1, 0, 0, 0, 1, 0, 0, 0, 1, 1, 4.5, -2)
size = Vector3(18, 9, 22)
material = ExtResource("1_wunca")

[node name="CSGBox3D5" type="CSGBox3D" parent="."]
transform = Transform3D(1, 0, 0, 0, 1, 0, 0, 0, 1, -8.5, 3.5, -2.5)
size = Vector3(1, 7, 13)
material = ExtResource("1_wunca")
