[gd_scene load_steps=2 format=3 uid="uid://enxm35gg83lk"]

[ext_resource type="Material" uid="uid://bk1jki3qc31vu" path="res://textures/resources/CSG.tres" id="1_fg12o"]

[node name="minitile_2x2_1" type="Node3D"]

[node name="CSGBox3D" type="CSGBox3D" parent="."]
transform = Transform3D(1, 0, 0, 0, 1, 0, 0, 0, 1, 0, -25, 0)
material_override = ExtResource("1_fg12o")
size = Vector3(16, 50, 16)

[node name="CSGBox3D4" type="CSGBox3D" parent="."]
transform = Transform3D(1, 0, 0, 0, 1, 0, 0, 0, 1, 0.5, 8, 1.5)
size = Vector3(1, 2, 7)
material = ExtResource("1_fg12o")

[node name="CSGBox3D11" type="CSGBox3D" parent="."]
transform = Transform3D(1, 0, 0, 0, 1, 0, 0, 0, 1, 0.5, 4.5, 6)
size = Vector3(1, 9, 2)
material = ExtResource("1_fg12o")

[node name="CSGBox3D12" type="CSGBox3D" parent="."]
transform = Transform3D(1, 0, 0, 0, 1, 0, 0, 0, 1, 0.5, 6.5, -1)
size = Vector3(1, 1, 2)
material = ExtResource("1_fg12o")

[node name="CSGBox3D3" type="CSGBox3D" parent="."]
transform = Transform3D(1, 0, 0, 0, 1, 0, 0, 0, 1, 0, 3, -2)
size = Vector3(10, 6, 8)
material = ExtResource("1_fg12o")

[node name="CSGBox3D5" type="CSGBox3D" parent="."]
transform = Transform3D(1, 0, 0, 0, 1, 0, 0, 0, 1, -5.5, 2, -1)
size = Vector3(1, 4, 4)
material = ExtResource("1_fg12o")

[node name="CSGBox3D13" type="CSGBox3D" parent="."]
transform = Transform3D(1, 0, 0, 0, 1, 0, 0, 0, 1, 3.98592, 8.5, 2.998)
size = Vector3(2, 17, 2)
material = ExtResource("1_fg12o")
