[gd_scene load_steps=2 format=3 uid="uid://cofu8tfh48rkm"]

[ext_resource type="Material" uid="uid://bk1jki3qc31vu" path="res://textures/resources/CSG.tres" id="1_6sy2s"]

[node name="minitile_3x4_1" type="Node3D"]

[node name="CSGBox3D" type="CSGBox3D" parent="."]
transform = Transform3D(1, 0, 0, 0, 1, 0, 0, 0, 1, 0, -25, 0)
size = Vector3(24, 50, 32)
material = ExtResource("1_6sy2s")

[node name="CSGBox3D3" type="CSGBox3D" parent="."]
transform = Transform3D(1, 0, 0, 0, 1, 0, 0, 0, 1, 10.5, 1.5, 14.5)
size = Vector3(3, 3, 3)
material = ExtResource("1_6sy2s")

[node name="CSGBox3D9" type="CSGBox3D" parent="."]
transform = Transform3D(1, 0, 0, 0, 1, 0, 0, 0, 1, 11, 5.5, 15)
size = Vector3(2, 5, 2)
material = ExtResource("1_6sy2s")

[node name="CSGBox3D4" type="CSGBox3D" parent="."]
transform = Transform3D(1, 0, 0, 0, 1, 0, 0, 0, 1, -10.5, 1.5, -14.5)
size = Vector3(3, 3, 3)
material = ExtResource("1_6sy2s")

[node name="CSGBox3D5" type="CSGBox3D" parent="."]
transform = Transform3D(1, 0, 0, 0, 1, 0, 0, 0, 1, -11.5, 8, 15.5)
size = Vector3(1, 16, 1)
material = ExtResource("1_6sy2s")

[node name="CSGBox3D8" type="CSGBox3D" parent="."]
transform = Transform3D(1, 0, 0, 0, 1, 0, 0, 0, 1, 11.5, 9, -15.5)
size = Vector3(1, 16, 1)
material = ExtResource("1_6sy2s")

[node name="CSGBox3D6" type="CSGBox3D" parent="."]
transform = Transform3D(1, 0, 0, 0, 1, 0, 0, 0, 1, -11, 5.5, -15)
size = Vector3(2, 5, 2)
material = ExtResource("1_6sy2s")

[node name="CSGBox3D7" type="CSGBox3D" parent="."]
transform = Transform3D(1, 0, 0, 0, 1, 0, 0, 0, 1, 9.5, 0.5, -13.5)
size = Vector3(5, 1, 5)
material = ExtResource("1_6sy2s")

[node name="CSGBox3D10" type="CSGBox3D" parent="."]
transform = Transform3D(1, 0, 0, 0, 1, 0, 0, 0, 1, 0, 2, 0.5)
size = Vector3(4, 4, 5)
material = ExtResource("1_6sy2s")
