[gd_scene load_steps=2 format=3 uid="uid://ydql2jw0ee81"]

[ext_resource type="Material" uid="uid://bk1jki3qc31vu" path="res://textures/resources/CSG.tres" id="1_bbywv"]

[node name="minitile_1x1_1" type="Node3D"]

[node name="CSGBox3D" type="CSGBox3D" parent="."]
transform = Transform3D(1, 0, 0, 0, 1, 0, 0, 0, 1, 0, -25, 0)
size = Vector3(8, 50, 8)
material = ExtResource("1_bbywv")

[node name="CSGBox3D11" type="CSGBox3D" parent="."]
transform = Transform3D(1, 0, 0, 0, 1, 0, 0, 0, 1, 0, 4, 2)
size = Vector3(2, 8, 2)
material = ExtResource("1_bbywv")
metadata/_edit_group_ = true

[node name="CSGBox3D12" type="CSGBox3D" parent="."]
transform = Transform3D(1, 0, 0, 0, 1, 0, 0, 0, 1, 0, 4, -2)
size = Vector3(2, 8, 2)
material = ExtResource("1_bbywv")
metadata/_edit_group_ = true

[node name="CSGBox3D13" type="CSGBox3D" parent="."]
transform = Transform3D(1, 0, 0, 0, 1, 0, 0, 0, 1, 0, 6.5, 0)
size = Vector3(4, 3, 4)
material = ExtResource("1_bbywv")
metadata/_edit_group_ = true

[node name="CSGBox3D14" type="CSGBox3D" parent="."]
transform = Transform3D(1, 0, 0, 0, 1, 0, 0, 0, 1, 0, 11, 0)
size = Vector3(6, 6, 6)
material = ExtResource("1_bbywv")
metadata/_edit_group_ = true
