[gd_scene load_steps=2 format=3 uid="uid://b6umxnmvq45s1"]

[ext_resource type="Material" uid="uid://bk1jki3qc31vu" path="res://textures/resources/CSG.tres" id="1_ihac0"]

[node name="minitile_2x2_1" type="Node3D"]

[node name="CSGBox3D" type="CSGBox3D" parent="."]
transform = Transform3D(1, 0, 0, 0, 1, 0, 0, 0, 1, 0, -25, 0)
material_override = ExtResource("1_ihac0")
size = Vector3(16, 50, 16)

[node name="CSGBox3D22" type="CSGBox3D" parent="."]
transform = Transform3D(1, 0, 0, 0, 1, 0, 0, 0, 1, 4.5, 7, -3)
size = Vector3(5, 4, 4)
material = ExtResource("1_ihac0")

[node name="CSGBox3D27" type="CSGBox3D" parent="."]
transform = Transform3D(1, 0, 0, 0, 1, 0, 0, 0, 1, -3.5, 2, -3)
size = Vector3(5, 4, 4)
material = ExtResource("1_ihac0")

[node name="CSGBox3D23" type="CSGBox3D" parent="."]
transform = Transform3D(1, 0, 0, 0, 1, 0, 0, 0, 1, -3.5, 12, -3)
size = Vector3(5, 4, 4)
material = ExtResource("1_ihac0")

[node name="CSGBox3D24" type="CSGBox3D" parent="."]
transform = Transform3D(1, 0, 0, 0, 1, 0, 0, 0, 1, 0.5, 9.5, -3)
size = Vector3(13, 1, 4)
material = ExtResource("1_ihac0")

[node name="CSGBox3D26" type="CSGBox3D" parent="."]
transform = Transform3D(1, 0, 0, 0, 1, 0, 0, 0, 1, 0.5, 4.5, -3)
size = Vector3(13, 1, 4)
material = ExtResource("1_ihac0")

[node name="CSGBox3D25" type="CSGBox3D" parent="."]
transform = Transform3D(1, 0, 0, 0, 1, 0, 0, 0, 1, -3.5, 14.5, 1)
size = Vector3(5, 1, 12)
material = ExtResource("1_ihac0")

[node name="CSGBox3D30" type="CSGBox3D" parent="."]
transform = Transform3D(1, 0, 0, 0, 1, 0, 0, 0, 1, -4, 8, 5)
size = Vector3(2, 16, 2)
material = ExtResource("1_ihac0")
