[gd_scene load_steps=2 format=3 uid="uid://b010pfw11b0yh"]

[ext_resource type="Material" uid="uid://bk1jki3qc31vu" path="res://textures/resources/CSG.tres" id="1_j5gxq"]

[node name="minitile_1x5_1" type="Node3D"]

[node name="CSGBox3D" type="CSGBox3D" parent="."]
transform = Transform3D(1, 0, 0, 0, 1, 0, 0, 0, 1, 0, -25, 0)
size = Vector3(8, 50, 40)
material = ExtResource("1_j5gxq")

[node name="CSGBox3D2" type="CSGBox3D" parent="."]
transform = Transform3D(1, 0, 0, 0, 1, 0, 0, 0, 1, 0, 4, 0)
material_override = ExtResource("1_j5gxq")
size = Vector3(4, 8, 4)

[node name="CSGBox3D3" type="CSGBox3D" parent="."]
transform = Transform3D(1, 0, 0, 0, 1, 0, 0, 0, 1, 0, 4, 16)
material_override = ExtResource("1_j5gxq")
size = Vector3(4, 8, 4)

[node name="CSGBox3D4" type="CSGBox3D" parent="."]
transform = Transform3D(1, 0, 0, 0, 1, 0, 0, 0, 1, 0, 4, 8)
material_override = ExtResource("1_j5gxq")
size = Vector3(4, 8, 4)

[node name="CSGBox3D5" type="CSGBox3D" parent="."]
transform = Transform3D(1, 0, 0, 0, 1, 0, 0, 0, 1, 0, 4, -8)
material_override = ExtResource("1_j5gxq")
size = Vector3(4, 8, 4)

[node name="CSGBox3D6" type="CSGBox3D" parent="."]
transform = Transform3D(1, 0, 0, 0, 1, 0, 0, 0, 1, 0, 4, -16)
material_override = ExtResource("1_j5gxq")
size = Vector3(4, 8, 4)

[node name="CSGBox3D7" type="CSGBox3D" parent="."]
transform = Transform3D(1, 0, 0, 0, 1, 0, 0, 0, 1, -0.5, 7, -4)
material_override = ExtResource("1_j5gxq")
size = Vector3(1, 2, 4)

[node name="CSGBox3D8" type="CSGBox3D" parent="."]
transform = Transform3D(1, 0, 0, 0, 1, 0, 0, 0, 1, -0.5, 1, 4)
material_override = ExtResource("1_j5gxq")
size = Vector3(1, 2, 4)
