[gd_scene load_steps=2 format=3 uid="uid://ckpm4j752x4do"]

[ext_resource type="Material" uid="uid://bk1jki3qc31vu" path="res://textures/resources/CSG.tres" id="1_cps2p"]

[node name="minitile_2x2_1" type="Node3D"]

[node name="CSGBox3D" type="CSGBox3D" parent="."]
transform = Transform3D(1, 0, 0, 0, 1, 0, 0, 0, 1, 0, -25, 0)
material_override = ExtResource("1_cps2p")
size = Vector3(16, 50, 16)

[node name="CSGBox3D2" type="CSGBox3D" parent="."]
transform = Transform3D(1, 0, 0, 0, 1, 0, 0, 0, 1, -4, 4, 4)
material_override = ExtResource("1_cps2p")
size = Vector3(4, 8, 4)

[node name="CSGBox3D3" type="CSGBox3D" parent="."]
transform = Transform3D(1, 0, 0, 0, 1, 0, 0, 0, 1, 4, 6, 4)
material_override = ExtResource("1_cps2p")
size = Vector3(4, 12, 4)

[node name="CSGBox3D4" type="CSGBox3D" parent="."]
transform = Transform3D(1, 0, 0, 0, 1, 0, 0, 0, 1, -4, 4, -4)
material_override = ExtResource("1_cps2p")
size = Vector3(4, 8, 4)

[node name="CSGBox3D5" type="CSGBox3D" parent="."]
transform = Transform3D(1, 0, 0, 0, 1, 0, 0, 0, 1, 4, 4, -4)
material_override = ExtResource("1_cps2p")
size = Vector3(4, 8, 4)
