[gd_scene load_steps=2 format=3 uid="uid://cakcegfqnfemy"]

[ext_resource type="Material" uid="uid://bk1jki3qc31vu" path="res://textures/resources/CSG.tres" id="1_bu8t4"]

[node name="minitile_2x4_1" type="Node3D"]

[node name="CSGBox3D" type="CSGBox3D" parent="."]
transform = Transform3D(1, 0, 0, 0, 1, 0, 0, 0, 1, 0, -25, 0)
material_override = ExtResource("1_bu8t4")
size = Vector3(16, 50, 32)

[node name="CSGBox3D5" type="CSGBox3D" parent="."]
transform = Transform3D(1, 0, 0, 0, 1, 0, 0, 0, 1, -5.5, 2.5, 2.5)
material_override = ExtResource("1_bu8t4")
size = Vector3(1, 5, 25)

[node name="CSGBox3D6" type="CSGBox3D" parent="."]
transform = Transform3D(1, 0, 0, 0, 1, 0, 0, 0, 1, -1.5, 2.5, -3)
material_override = ExtResource("1_bu8t4")
size = Vector3(1, 5, 22)

[node name="CSGBox3D7" type="CSGBox3D" parent="."]
transform = Transform3D(1, 0, 0, 0, 1, 0, 0, 0, 1, 2.5, 2.5, 10.5)
material_override = ExtResource("1_bu8t4")
size = Vector3(1, 5, 11)

[node name="CSGBox3D8" type="CSGBox3D" parent="."]
transform = Transform3D(1, 0, 0, 0, 1, 0, 0, 0, 1, 4.5, 2.5, -10)
material_override = ExtResource("1_bu8t4")
size = Vector3(1, 5, 12)

[node name="CSGBox3D9" type="CSGBox3D" parent="."]
transform = Transform3D(1, 0, 0, 0, 1, 0, 0, 0, 1, 5.5, 2.5, 6.5)
material_override = ExtResource("1_bu8t4")
size = Vector3(1, 5, 15)

[node name="CSGBox3D12" type="CSGBox3D" parent="."]
transform = Transform3D(1, 0, 0, 0, 1, 0, 0, 0, 1, -1.5, 5.5, -10.5)
material_override = ExtResource("1_bu8t4")

[node name="CSGBox3D13" type="CSGBox3D" parent="."]
transform = Transform3D(1, 0, 0, 0, 1, 0, 0, 0, 1, -5.5, 5.5, 2.5)
material_override = ExtResource("1_bu8t4")

[node name="CSGBox3D14" type="CSGBox3D" parent="."]
transform = Transform3D(1, 0, 0, 0, 1, 0, 0, 0, 1, 4.5, 5.5, -5.5)
material_override = ExtResource("1_bu8t4")
