[gd_scene load_steps=2 format=3 uid="uid://bv3h6bh62cvr6"]

[ext_resource type="Material" uid="uid://bk1jki3qc31vu" path="res://textures/resources/CSG.tres" id="1_0dd5k"]

[node name="minitile_1x4_1" type="Node3D"]

[node name="CSGBox3D" type="CSGBox3D" parent="."]
transform = Transform3D(1, 0, 0, 0, 1, 0, 0, 0, 1, 0, -25, 0)
size = Vector3(8, 50, 32)
material = ExtResource("1_0dd5k")

[node name="CSGBox3D29" type="CSGBox3D" parent="."]
transform = Transform3D(1, 0, 0, 0, 1, 0, 0, 0, 1, 3.5, 4, 0)
size = Vector3(1, 8, 32)
material = ExtResource("1_0dd5k")

[node name="CSGBox3D30" type="CSGBox3D" parent="."]
transform = Transform3D(1, 0, 0, 0, 1, 0, 0, 0, 1, 0, 3.5, 0)
size = Vector3(6, 1, 2)
material = ExtResource("1_0dd5k")

[node name="CSGBox3D31" type="CSGBox3D" parent="."]
transform = Transform3D(1, 0, 0, 0, 1, 0, 0, 0, 1, 1.5, 4.5, 10.5)
size = Vector3(3, 1, 3)
material = ExtResource("1_0dd5k")

[node name="CSGBox3D32" type="CSGBox3D" parent="."]
transform = Transform3D(1, 0, 0, 0, 1, 0, 0, 0, 1, -2.5, 2.5, 10.5)
size = Vector3(1, 5, 1)
material = ExtResource("1_0dd5k")

[node name="CSGBox3D36" type="CSGBox3D" parent="."]
transform = Transform3D(1, 0, 0, 0, 1, 0, 0, 0, 1, 2.5, 1.5, -0.5)
size = Vector3(1, 3, 1)
material = ExtResource("1_0dd5k")

[node name="CSGBox3D35" type="CSGBox3D" parent="."]
transform = Transform3D(1, 0, 0, 0, 1, 0, 0, 0, 1, 2, 1.5, -8)
size = Vector3(2, 3, 8)
material = ExtResource("1_0dd5k")

[node name="CSGBox3D34" type="CSGBox3D" parent="."]
transform = Transform3D(1, 0, 0, 0, 1, 0, 0, 0, 1, -1, 4.5, 10.5)
size = Vector3(2, 1, 1)
material = ExtResource("1_0dd5k")

[node name="CSGBox3D33" type="CSGBox3D" parent="."]
transform = Transform3D(1, 0, 0, 0, 1, 0, 0, 0, 1, -2.5, 3.5, 5.5)
size = Vector3(1, 1, 9)
material = ExtResource("1_0dd5k")
