[gd_scene load_steps=2 format=3 uid="uid://b6vnr8xg2lpkd"]

[ext_resource type="Material" uid="uid://bk1jki3qc31vu" path="res://textures/resources/CSG.tres" id="1_isgft"]

[node name="minitile_3x3_1" type="Node3D"]

[node name="CSGBox3D" type="CSGBox3D" parent="."]
transform = Transform3D(1, 0, 0, 0, 1, 0, 0, 0, 1, 0, -25, 0)
material_override = ExtResource("1_isgft")
size = Vector3(24, 50, 24)

[node name="CSGBox3D129" type="CSGBox3D" parent="."]
transform = Transform3D(1, 0, 0, 0, 1, 0, 0, 0, 1, 0.5, 2.5, 1.5)
material_override = ExtResource("1_isgft")
size = Vector3(1, 1, 3)

[node name="CSGBox3D130" type="CSGBox3D" parent="."]
transform = Transform3D(1, 0, 0, 0, 1, 0, 0, 0, 1, 0.5, 3.5, 2)
material_override = ExtResource("1_isgft")
size = Vector3(1, 1, 2)

[node name="CSGBox3D131" type="CSGBox3D" parent="."]
transform = Transform3D(1, 0, 0, 0, 1, 0, 0, 0, 1, 0.5, 4.5, 1.5)
material_override = ExtResource("1_isgft")

[node name="CSGBox3D135" type="CSGBox3D" parent="."]
transform = Transform3D(1, 0, 0, 0, 1, 0, 0, 0, 1, 0.5, 2, -1)
material_override = ExtResource("1_isgft")
size = Vector3(1, 4, 2)

[node name="CSGBox3D134" type="CSGBox3D" parent="."]
transform = Transform3D(1, 0, 0, 0, 1, 0, 0, 0, 1, 0.5, 5, -0.5)
material_override = ExtResource("1_isgft")
size = Vector3(1, 2, 3)

[node name="CSGBox3D136" type="CSGBox3D" parent="."]
transform = Transform3D(1, 0, 0, 0, 1, 0, 0, 0, 1, 0.5, 6.5, -1)
material_override = ExtResource("1_isgft")
size = Vector3(1, 1, 2)

[node name="CSGBox3D128" type="CSGBox3D" parent="."]
transform = Transform3D(1, 0, 0, 0, 1, 0, 0, 0, 1, 0.5, 2.5, -2.5)
material_override = ExtResource("1_isgft")
