[gd_scene load_steps=2 format=3 uid="uid://bnrmaci2xw034"]

[ext_resource type="Material" uid="uid://bk1jki3qc31vu" path="res://textures/resources/CSG.tres" id="1_o1e0s"]

[node name="minitile_2x4_1" type="Node3D"]

[node name="CSGBox3D" type="CSGBox3D" parent="."]
transform = Transform3D(1, 0, 0, 0, 1, 0, 0, 0, 1, 0, -25, 0)
material_override = ExtResource("1_o1e0s")
size = Vector3(16, 50, 32)

[node name="CSGBox3D107" type="CSGBox3D" parent="."]
transform = Transform3D(1, 0, 0, 0, 1, 0, 0, 0, 1, 0.5, 3.5, 3)
material_override = ExtResource("1_o1e0s")
size = Vector3(1, 7, 2)

[node name="CSGBox3D108" type="CSGBox3D" parent="."]
transform = Transform3D(1, 0, 0, 0, 1, 0, 0, 0, 1, 0.5, 3.5, -2)
material_override = ExtResource("1_o1e0s")
size = Vector3(1, 7, 2)

[node name="CSGBox3D109" type="CSGBox3D" parent="."]
transform = Transform3D(1, 0, 0, 0, 1, 0, 0, 0, 1, 0.5, 2, 1.5)
material_override = ExtResource("1_o1e0s")
size = Vector3(1, 2, 1)

[node name="CSGBox3D110" type="CSGBox3D" parent="."]
transform = Transform3D(1, 0, 0, 0, 1, 0, 0, 0, 1, 0.5, 3, 0.5)
material_override = ExtResource("1_o1e0s")
size = Vector3(1, 2, 1)

[node name="CSGBox3D111" type="CSGBox3D" parent="."]
transform = Transform3D(1, 0, 0, 0, 1, 0, 0, 0, 1, 0.5, 2, -0.5)
material_override = ExtResource("1_o1e0s")
size = Vector3(1, 2, 1)
