[gd_scene load_steps=2 format=3 uid="uid://bugjdrfwljo34"]

[ext_resource type="Material" uid="uid://bk1jki3qc31vu" path="res://textures/resources/CSG.tres" id="1_wm0ot"]

[node name="minitile_2x3_1" type="Node3D"]

[node name="CSGBox3D" type="CSGBox3D" parent="."]
transform = Transform3D(1, 0, 0, 0, 1, 0, 0, 0, 1, 0, -25, 0)
material_override = ExtResource("1_wm0ot")
size = Vector3(16, 50, 24)

[node name="CSGBox3D91" type="CSGBox3D" parent="."]
transform = Transform3D(1, 0, 0, 0, 1, 0, 0, 0, 1, 0.5, 0.5, -0.5)
material_override = ExtResource("1_wm0ot")
size = Vector3(1, 1, 5)

[node name="CSGBox3D92" type="CSGBox3D" parent="."]
transform = Transform3D(1, 0, 0, 0, 1, 0, 0, 0, 1, 0.5, 3, -2)
material_override = ExtResource("1_wm0ot")
size = Vector3(1, 4, 2)

[node name="CSGBox3D93" type="CSGBox3D" parent="."]
transform = Transform3D(1, 0, 0, 0, 1, 0, 0, 0, 1, 0.5, 3, 2)
material_override = ExtResource("1_wm0ot")
size = Vector3(1, 4, 2)
