[gd_scene load_steps=2 format=3 uid="uid://dsak72euxqdwr"]

[ext_resource type="Material" uid="uid://bk1jki3qc31vu" path="res://textures/resources/CSG.tres" id="1_0yvam"]

[node name="minitile_2x3_1" type="Node3D"]

[node name="CSGBox3D" type="CSGBox3D" parent="."]
transform = Transform3D(1, 0, 0, 0, 1, 0, 0, 0, 1, 0, -25, 0)
material_override = ExtResource("1_0yvam")
size = Vector3(16, 50, 24)

[node name="CSGBox3D2" type="CSGBox3D" parent="."]
transform = Transform3D(1, 0, 0, 0, 1, 0, 0, 0, 1, -5, 0.5, -9.5)
material_override = ExtResource("1_0yvam")
size = Vector3(6, 1, 5)

[node name="CSGBox3D6" type="CSGBox3D" parent="."]
transform = Transform3D(1, 0, 0, 0, 1, 0, 0, 0, 1, -0.5, 15.5, -0.5)
material_override = ExtResource("1_0yvam")
size = Vector3(15, 1, 23)

[node name="CSGBox3D3" type="CSGBox3D" parent="."]
transform = Transform3D(1, 0, 0, 0, 1, 0, 0, 0, 1, -6, 2, -10.5)
material_override = ExtResource("1_0yvam")
size = Vector3(4, 2, 3)

[node name="CSGBox3D4" type="CSGBox3D" parent="."]
transform = Transform3D(1, 0, 0, 0, 1, 0, 0, 0, 1, -7, 5, -11)
material_override = ExtResource("1_0yvam")
size = Vector3(2, 4, 2)

[node name="CSGBox3D5" type="CSGBox3D" parent="."]
transform = Transform3D(1, 0, 0, 0, 1, 0, 0, 0, 1, -7.5, 11, -11.5)
material_override = ExtResource("1_0yvam")
size = Vector3(1, 8, 1)

[node name="CSGBox3D7" type="CSGBox3D" parent="."]
transform = Transform3D(1, 0, 0, 0, 1, 0, 0, 0, 1, -6.5, 1, -6.5)
material_override = ExtResource("1_0yvam")
size = Vector3(1, 2, 5)

[node name="CSGBox3D8" type="CSGBox3D" parent="."]
transform = Transform3D(1, 0, 0, 0, 1, 0, 0, 0, 1, -6.5, 1.5, -3.5)
material_override = ExtResource("1_0yvam")
size = Vector3(1, 3, 1)
