[gd_scene load_steps=2 format=3 uid="uid://dx64r44kfj1uk"]

[ext_resource type="Material" uid="uid://bk1jki3qc31vu" path="res://textures/resources/CSG.tres" id="1_0pq6q"]

[node name="minitile_3x4_1" type="Node3D"]

[node name="CSGBox3D" type="CSGBox3D" parent="."]
transform = Transform3D(1, 0, 0, 0, 1, 0, 0, 0, 1, 0, -25, 0)
size = Vector3(24, 50, 32)
material = ExtResource("1_0pq6q")

[node name="CSGBox3D2" type="CSGBox3D" parent="."]
transform = Transform3D(1, 0, 0, 0, 1, 0, 0, 0, 1, -9, 0.5, -13.5)
material_override = ExtResource("1_0pq6q")
size = Vector3(6, 1, 5)

[node name="CSGBox3D6" type="CSGBox3D" parent="."]
transform = Transform3D(1, 0, 0, 0, 1, 0, 0, 0, 1, -0.5, 15.5, -0.5)
material_override = ExtResource("1_0pq6q")
size = Vector3(23, 1, 31)

[node name="CSGBox3D3" type="CSGBox3D" parent="."]
transform = Transform3D(1, 0, 0, 0, 1, 0, 0, 0, 1, -10, 2, -14.5)
material_override = ExtResource("1_0pq6q")
size = Vector3(4, 2, 3)

[node name="CSGBox3D4" type="CSGBox3D" parent="."]
transform = Transform3D(1, 0, 0, 0, 1, 0, 0, 0, 1, -11, 5, -15)
material_override = ExtResource("1_0pq6q")
size = Vector3(2, 4, 2)

[node name="CSGBox3D5" type="CSGBox3D" parent="."]
transform = Transform3D(1, 0, 0, 0, 1, 0, 0, 0, 1, -11.5, 11, -15.5)
material_override = ExtResource("1_0pq6q")
size = Vector3(1, 8, 1)

[node name="CSGBox3D7" type="CSGBox3D" parent="."]
transform = Transform3D(1, 0, 0, 0, 1, 0, 0, 0, 1, -8.5, 1, -7)
material_override = ExtResource("1_0pq6q")
size = Vector3(1, 2, 12)
