[gd_scene load_steps=2 format=3 uid="uid://djrftt5ki3f3u"]

[ext_resource type="Material" uid="uid://bk1jki3qc31vu" path="res://textures/resources/CSG.tres" id="1_ude6a"]

[node name="minitile_2x5_1" type="Node3D"]

[node name="CSGBox3D" type="CSGBox3D" parent="."]
transform = Transform3D(1, 0, 0, 0, 1, 0, 0, 0, 1, 0, -25, 0)
material_override = ExtResource("1_ude6a")
size = Vector3(16, 50, 40)

[node name="CSGBox3D2" type="CSGBox3D" parent="."]
transform = Transform3D(1, 0, 0, 0, 1, 0, 0, 0, 1, 0.5, 6, -19.5)
material_override = ExtResource("1_ude6a")
size = Vector3(15, 12, 1)

[node name="CSGBox3D5" type="CSGBox3D" parent="."]
transform = Transform3D(1, 0, 0, 0, 1, 0, 0, 0, 1, 0, 6, 19.5)
material_override = ExtResource("1_ude6a")
size = Vector3(16, 12, 1)

[node name="CSGBox3D6" type="CSGBox3D" parent="."]
transform = Transform3D(1, 0, 0, 0, 1, 0, 0, 0, 1, -7.5, 8, -1.5)
material_override = ExtResource("1_ude6a")
size = Vector3(1, 8, 5)

[node name="CSGBox3D7" type="CSGBox3D" parent="."]
transform = Transform3D(1, 0, 0, 0, 1, 0, 0, 0, 1, -5, 4.5, -1.5)
material_override = ExtResource("1_ude6a")
size = Vector3(4, 1, 5)

[node name="CSGBox3D3" type="CSGBox3D" parent="."]
transform = Transform3D(1, 0, 0, 0, 1, 0, 0, 0, 1, -7.5, 6, 10)
material_override = ExtResource("1_ude6a")
size = Vector3(1, 12, 18)

[node name="CSGBox3D4" type="CSGBox3D" parent="."]
transform = Transform3D(1, 0, 0, 0, 1, 0, 0, 0, 1, -7.5, 6, -12)
material_override = ExtResource("1_ude6a")
size = Vector3(1, 12, 16)
