[gd_scene load_steps=2 format=3 uid="uid://cl870v3nay44f"]

[ext_resource type="Material" uid="uid://bk1jki3qc31vu" path="res://textures/resources/CSG.tres" id="1_40tin"]

[node name="minitile_1x1_1" type="Node3D"]

[node name="CSGBox3D" type="CSGBox3D" parent="."]
transform = Transform3D(1, 0, 0, 0, 1, 0, 0, 0, 1, 0, -25, 0)
material_override = ExtResource("1_40tin")
size = Vector3(8, 50, 8)

[node name="CSGBox3D9" type="CSGBox3D" parent="."]
transform = Transform3D(1, 0, 0, 0, 1, 0, 0, 0, 1, -3.5, 2, 2.5)
size = Vector3(1, 4, 3)
material = ExtResource("1_40tin")

[node name="CSGBox3D10" type="CSGBox3D" parent="."]
transform = Transform3D(1, 0, 0, 0, 1, 0, 0, 0, 1, 3.5, 2, 2.5)
size = Vector3(1, 4, 3)
material = ExtResource("1_40tin")

[node name="CSGBox3D11" type="CSGBox3D" parent="."]
transform = Transform3D(1, 0, 0, 0, 1, 0, 0, 0, 1, 0, 4.5, 2.5)
size = Vector3(8, 1, 3)
material = ExtResource("1_40tin")

[node name="CSGBox3D12" type="CSGBox3D" parent="."]
transform = Transform3D(1, 0, 0, 0, 1, 0, 0, 0, 1, -3.5, 2, -2.5)
size = Vector3(1, 4, 3)
material = ExtResource("1_40tin")

[node name="CSGBox3D13" type="CSGBox3D" parent="."]
transform = Transform3D(1, 0, 0, 0, 1, 0, 0, 0, 1, 3.5, 2, -2.5)
size = Vector3(1, 4, 3)
material = ExtResource("1_40tin")

[node name="CSGBox3D14" type="CSGBox3D" parent="."]
transform = Transform3D(1, 0, 0, 0, 1, 0, 0, 0, 1, 0, 4.5, -2.5)
size = Vector3(8, 1, 3)
material = ExtResource("1_40tin")
